{
  "IcoMoonType": "selection",
  "icons": [
    {
      "icon": {
        "paths": [
          "M256 307.2h512l-256 460.8-256-460.8z"
        ],
        "attrs": [],
        "isMulticolor": false,
        "isMulticolor2": false,
        "tags": [
          "triangle-down"
        ],
        "grid": 20
      },
      "attrs": [],
      "properties": {
        "id": 81,
        "order": 82,
        "prevSize": 20,
        "code": 59704,
        "name": "triangle-down"
      },
      "setIdx": 0,
      "setId": 4,
      "iconIdx": 80
    },
    {
      "icon": {
        "paths": [
          "M716.8 256v512l-460.8-256 460.8-256z"
        ],
        "attrs": [],
        "isMulticolor": false,
        "isMulticolor2": false,
        "tags": [
          "triangle-left"
        ],
        "grid": 20
      },
      "attrs": [],
      "properties": {
        "id": 82,
        "order": 83,
        "prevSize": 20,
        "code": 59721,
        "name": "triangle-left"
      },
      "setIdx": 0,
      "setId": 4,
      "iconIdx": 81
    },
    {
      "icon": {
        "paths": [
          "M768 512l-460.8 256v-512l460.8 256z"
        ],
        "attrs": [],
        "isMulticolor": false,
        "isMulticolor2": false,
        "tags": [
          "triangle-right"
        ],
        "grid": 20
      },
      "attrs": [],
      "properties": {
        "id": 83,
        "order": 84,
        "prevSize": 20,
        "code": 59722,
        "name": "triangle-right"
      },
      "setIdx": 0,
      "setId": 4,
      "iconIdx": 82
    },
    {
      "icon": {
        "paths": [
          "M768 716.8h-512l256-460.8 256 460.8z"
        ],
        "attrs": [],
        "isMulticolor": false,
        "isMulticolor2": false,
        "tags": [
          "triangle-up"
        ],
        "grid": 20
      },
      "attrs": [],
      "properties": {
        "id": 84,
        "order": 85,
        "prevSize": 20,
        "code": 59723,
        "name": "triangle-up"
      },
      "setIdx": 0,
      "setId": 4,
      "iconIdx": 83
    },
    {
      "icon": {
        "paths": [
          "M610.304 614.4c41.779-9.011 80.282-26.214 113.869-49.152v450.56l-113.869-53.248v-348.16zM818.381 285.901c0 153.19-124.518 277.709-277.709 277.709s-277.709-124.518-277.709-277.709c0-153.19 124.518-277.709 277.709-277.709s277.709 124.518 277.709 277.709zM704.512 285.901c0-90.112-73.728-163.84-163.84-163.84s-163.84 73.728-163.84 163.84 73.728 163.84 163.84 163.84 163.84-73.728 163.84-163.84zM357.99 1015.808l113.869-53.248v-348.16c-41.779-9.011-80.282-26.214-113.869-49.152v450.56z"
        ],
        "attrs": [
          {}
        ],
        "width": 1105,
        "isMulticolor": false,
        "isMulticolor2": false,
        "grid": 0,
        "tags": [
          "ribbon"
        ]
      },
      "attrs": [
        {}
      ],
      "properties": {
        "order": 74,
        "id": 1,
        "name": "ribbon",
        "prevSize": 32,
        "code": 59689
      },
      "setIdx": 2,
      "setId": 2,
      "iconIdx": 0
    },
    {
      "icon": {
        "paths": [
          "M1096.090 122.88v892.928h-1096.090v-892.928h226.099v-114.688h113.050v114.688h417.792v-114.688h113.050v114.688h226.099zM983.040 221.184h-869.99v696.32h869.99v-696.32zM431.718 425.984h75.366v288.358h-85.197v94.208h253.133v-95.027h-57.344v-382.566h-185.958v95.027z"
        ],
        "attrs": [
          {}
        ],
        "width": 1105,
        "isMulticolor": false,
        "isMulticolor2": false,
        "grid": 0,
        "tags": [
          "calendarnum"
        ]
      },
      "attrs": [
        {}
      ],
      "properties": {
        "order": 72,
        "id": 0,
        "name": "calendarnum",
        "prevSize": 32,
        "code": 59720
      },
      "setIdx": 2,
      "setId": 2,
      "iconIdx": 1
    },
    {
      "icon": {
        "paths": [
          "M742.69 280.709h109.828v55.816h-109.828v109.999h-56.073v-109.999h-109.656v-55.816h109.656v-109.828h55.816zM1023.399 308.617c0 0.080 0 0.175 0 0.27 0 170.35-138.096 308.445-308.445 308.445-108.193 0-203.376-55.706-258.431-140l-0.725-1.183h-40.702v-69.297h7.127c-10.233-29.385-16.143-63.256-16.143-98.507 0-170.444 138.172-308.617 308.617-308.617s308.617 138.172 308.617 308.617c0 0.096-0 0.191-0 0.287l0-0.015zM959.941 308.617c0-135.398-109.761-245.159-245.159-245.159s-245.159 109.761-245.159 245.159c0 135.367 109.712 245.11 245.068 245.159l0.005 0c135.339-0.147 245.012-109.82 245.159-245.145l0-0.014zM-0.343 476.149h69.297v-69.297h-69.297zM138.079 476.149h69.297v-69.297h-68.954zM345.627 406.852h-68.954v69.297h69.297zM-0.343 613.112h69.297v-69.297h-69.297zM138.079 613.112h69.297v-69.297h-68.954zM-0.343 750.075h69.297v-69.297h-69.297zM138.079 750.075h69.297v-69.297h-68.954zM-0.343 887.037h69.297v-69.297h-69.297zM138.079 887.037h69.297v-69.297h-68.954zM-0.343 1024h69.297v-69.297h-69.297zM138.079 1024h69.297v-69.297h-68.954zM276.33 1024h69.297v-69.297h-68.954zM414.752 1024h69.297v-69.297h-68.954zM555.923 764.243l164.269 111.631-33.575 49.633-163.84-111.631c-11.042 11.551-23.573 21.541-37.32 29.697l-0.807 0.443v42.935h-69.555v-19.664c-5.667 0.601-11.421 0.945-17.174 0.945h-0.687c-0.149 0-0.326 0.001-0.502 0.001-18.211 0-35.763-2.826-52.24-8.064l1.22 0.335v26.877h-69.039v-68.524c-32.451-31.475-52.591-75.483-52.591-124.196 0-47.61 19.238-90.726 50.365-122l-0.007 0.007 2.318-2.233v-26.62h35.636c24.281-13.952 53.378-22.198 84.398-22.24l0.013-0h0.601c95.604 0.006 173.104 77.509 173.104 173.114 0 25.166-5.37 49.078-15.027 70.652l0.439-1.098zM510.24 694.603c-0.049-62.374-50.624-112.919-113.005-112.919-62.411 0-113.005 50.594-113.005 113.005s50.594 113.005 113.005 113.005l0 0c62.422-0.049 113.005-50.663 113.005-113.091 0-0.091-0-0.181-0-0.272l0 0.014z"
        ],
        "attrs": [
          {}
        ],
        "width": 1023,
        "isMulticolor": false,
        "isMulticolor2": false,
        "grid": 0,
        "tags": [
          "createfromexisting"
        ]
      },
      "attrs": [
        {}
      ],
      "properties": {
        "order": 79,
        "id": 4,
        "name": "createfromexisting",
        "prevSize": 32,
        "code": 59690
      },
      "setIdx": 3,
      "setId": 1,
      "iconIdx": 0
    },
    {
      "icon": {
        "paths": [
          "M844.499 284.999h111.866v56.621h-111.866v111.866h-56.707v-111.866h-111.866v-56.621h111.866v-111.866h56.707zM1129.498 313.31c0 0.066 0 0.144 0 0.222 0 172.941-140.196 313.137-313.137 313.137-46.412 0-90.466-10.097-130.084-28.215l1.955 0.801v346.697l-331.122 78.048-330.778-78.048v-420.27l-26.331-56.707 313.912-71.594 43.025 53.868 43.025-53.868 123.654 28.225c-13.235-33.386-20.91-72.067-20.91-112.539 0-173.036 140.273-313.31 313.31-313.31s313.31 140.273 313.31 313.31c0 0.237-0 0.474-0.001 0.71l0-0.037zM321.226 655.876l-223.731-52.577v295.841l223.731 52.577zM617.068 603.213l-224.247 52.663v295.841l224.247-52.663zM603.041 542.978c-13.784-12.832-26.259-26.672-37.453-41.531l-0.581-0.805-207.898-49.135-317.096 74.434 317.010 74.434zM1065.132 313.654c0-0.1 0-0.219 0-0.338 0-137.44-111.417-248.858-248.858-248.858s-248.858 111.417-248.858 248.858c0 48.383 13.808 93.542 37.697 131.75l-0.61-1.046 110.833 25.299-27.106 56.449v0.947c36.545 22.287 80.753 35.482 128.043 35.482 137.393 0 248.772-111.379 248.772-248.772 0-0.041-0-0.081-0-0.122l0 0.006z"
        ],
        "attrs": [
          {}
        ],
        "width": 1129,
        "isMulticolor": false,
        "isMulticolor2": false,
        "grid": 0,
        "tags": [
          "createnewasset"
        ]
      },
      "attrs": [
        {}
      ],
      "properties": {
        "order": 80,
        "id": 3,
        "name": "createnewasset",
        "prevSize": 32,
        "code": 59702
      },
      "setIdx": 3,
      "setId": 1,
      "iconIdx": 1
    },
    {
      "icon": {
        "paths": [
          "M935.638 323.072h296.157v-296.243h-96.584v107.922c-87.601-83.416-206.427-134.738-337.239-134.738-95.446 0-184.511 27.322-259.799 74.572l2.042-1.195c-48.719-24.991-106.293-39.638-167.289-39.638-205.911 0-372.836 166.924-372.836 372.836 0 205.88 166.873 372.785 372.742 372.836l0.005 0c0.291 0.001 0.636 0.001 0.98 0.001 82.442 0 158.588-26.959 220.103-72.541l-1 0.708 316.408 316.495 77.89-77.89-316.062-316.062c46.411-61.535 74.333-139.288 74.333-223.562 0-102.899-41.627-196.076-108.96-263.608l0.009 0.009c-2.683-2.683-5.452-5.279-8.654-7.876 49.606-24.284 107.95-38.485 169.611-38.485 115.603 0 219.549 49.914 291.46 129.366l0.3 0.337h-153.617zM558.561 220.863c47.389 47.443 76.696 112.957 76.696 185.315 0 144.826-117.405 262.231-262.231 262.231s-262.231-117.405-262.231-262.231c0-144.826 117.405-262.231 262.231-262.231 24.661 0 48.526 3.404 71.152 9.768l-1.847-0.444c-83.418 87.452-134.751 206.15-134.751 336.837 0 0.059 0 0.119 0 0.178l-0-0.009h96.584c-0-0.047-0-0.101-0-0.156 0-115.364 49.751-219.108 128.969-290.946l0.329-0.294c9.21 7.133 17.395 14.331 25.113 21.997l-0.015-0.015z"
        ],
        "attrs": [
          {}
        ],
        "width": 1232,
        "isMulticolor": false,
        "isMulticolor2": false,
        "grid": 0,
        "tags": [
          "searchandreplace"
        ]
      },
      "attrs": [
        {}
      ],
      "properties": {
        "order": 81,
        "id": 2,
        "name": "searchandreplace",
        "prevSize": 32,
        "code": 59703
      },
      "setIdx": 3,
      "setId": 1,
      "iconIdx": 2
    },
    {
      "icon": {
        "paths": [
          "M689.431 577.474c75.517-59.762 123.534-151.413 123.534-254.28 0-178.647-144.822-323.469-323.469-323.469s-323.469 144.822-323.469 323.469c0 102.866 48.017 194.518 122.859 253.764l0.675 0.515c-171.913 78.459-289.293 248.752-289.561 446.49l-0 0.036h121.409c0-203.432 164.915-368.347 368.347-368.347s368.347 164.915 368.347 368.347v0h121.409c-0.341-197.889-117.941-368.228-287.014-445.274l-3.068-1.252zM489.453 121.062c111.738-0 202.32 90.582 202.32 202.32s-90.582 202.32-202.32 202.32c-111.708 0-202.27-90.532-202.32-202.228l-0-0.005c0.099-111.716 90.611-202.258 202.305-202.406l0.014-0z"
        ],
        "attrs": [
          {}
        ],
        "width": 979,
        "isMulticolor": false,
        "isMulticolor2": false,
        "grid": 0,
        "tags": [
          "singleuser"
        ]
      },
      "attrs": [
        {}
      ],
      "properties": {
        "order": 70,
        "id": 0,
        "name": "singleuser",
        "prevSize": 32,
        "code": 59719
      },
      "setIdx": 3,
      "setId": 1,
      "iconIdx": 4
    },
    {
      "icon": {
        "paths": [
          "M718.049 307.7h302.788v91.494h-302.788v-91.494z",
          "M718.049 498.929h302.788v91.494h-302.788v-91.494z",
          "M177.077 307.7h302.788v91.494h-302.788v-91.494z",
          "M177.077 498.929h302.788v91.494h-302.788v-91.494z",
          "M1198.829 49.285h-529.899l-69.515 89.496-71.347-89.496h-528.068v874.146h518.577l79.922 65.353 79.922-65.353h520.408zM114.971 149.188h365.143l61.024 76.509v597.999h-426.167zM1082.276 823.696h-426.167v-595.002l61.69-79.589h364.477z"
        ],
        "attrs": [
          {},
          {},
          {},
          {},
          {}
        ],
        "width": 1199,
        "isMulticolor": false,
        "isMulticolor2": false,
        "grid": 0,
        "tags": [
          "book"
        ],
        "colorPermutations": {
          "13531321": [
            {},
            {},
            {},
            {},
            {}
          ]
        }
      },
      "attrs": [
        {},
        {},
        {},
        {},
        {}
      ],
      "properties": {
        "order": 2,
        "id": 67,
        "name": "book",
        "prevSize": 32,
        "code": 59648
      },
      "setIdx": 4,
      "setId": 0,
      "iconIdx": 1
    },
    {
      "icon": {
        "paths": [
          "M598.998 11.239l-552.793 126.46v684.415l553.21 180.907 553.127-181.573v-20.313l-1.249-3.913v-659.106zM541.804 879.058l-380.628-124.462v-487.69l380.628 98.737zM599.415 277.396l-335.422-86.998 334.923-76.675 334.090 76.675zM1036.405 754.43l-379.796 124.878v-513.582l379.879-99.32z"
        ],
        "attrs": [
          {}
        ],
        "width": 1199,
        "isMulticolor": false,
        "isMulticolor2": false,
        "grid": 0,
        "tags": [
          "box"
        ],
        "colorPermutations": {
          "13531321": [
            {}
          ]
        }
      },
      "attrs": [
        {}
      ],
      "properties": {
        "order": 3,
        "id": 66,
        "name": "box",
        "prevSize": 32,
        "code": 59649
      },
      "setIdx": 4,
      "setId": 0,
      "iconIdx": 2
    },
    {
      "icon": {
        "paths": [
          "M668.764-0.583l-70.431 87.997-70.348-87.997-512.999 117.136 43.291 92.493v686.829l540.389 127.542 541.138-127.542v-686.663l44.040-92.66zM539.889 905.283l-365.643-85.916v-483.361l365.643 85.833zM1023.167 819.2l-366.309 85.999v-483.361l366.309-85.999zM598.582 331.093l-518.161-121.631 517.994-121.631 517.911 121.631z"
        ],
        "attrs": [
          {}
        ],
        "width": 1199,
        "isMulticolor": false,
        "isMulticolor2": false,
        "grid": 0,
        "tags": [
          "boxopen"
        ],
        "colorPermutations": {
          "13531321": [
            {}
          ]
        }
      },
      "attrs": [
        {}
      ],
      "properties": {
        "order": 4,
        "id": 65,
        "name": "boxopen",
        "prevSize": 32,
        "code": 59650
      },
      "setIdx": 4,
      "setId": 0,
      "iconIdx": 3
    },
    {
      "icon": {
        "paths": [
          "M1160.617 337.837l-561.202-225.613-561.202 225.613-37.297-92.743 598.499-240.598 598.499 240.598-37.297 92.743z",
          "M129.956 338.336h114.888v482.945h-114.888v-482.945z",
          "M404.522 338.17h114.888v482.945h-114.888v-482.945z",
          "M679.004 338.17h114.888v482.945h-114.888v-482.945z",
          "M38.129 919.602h1122.321v99.902h-1122.321v-99.902z",
          "M953.569 338.17h114.888v482.945h-114.888v-482.945z"
        ],
        "attrs": [
          {},
          {},
          {},
          {},
          {},
          {}
        ],
        "width": 1199,
        "isMulticolor": false,
        "isMulticolor2": false,
        "grid": 0,
        "tags": [
          "building"
        ],
        "colorPermutations": {
          "13531321": [
            {},
            {},
            {},
            {},
            {},
            {}
          ]
        }
      },
      "attrs": [
        {},
        {},
        {},
        {},
        {},
        {}
      ],
      "properties": {
        "order": 8,
        "id": 64,
        "name": "building",
        "prevSize": 32,
        "code": 59651
      },
      "setIdx": 4,
      "setId": 0,
      "iconIdx": 4
    },
    {
      "icon": {
        "paths": [
          "M233.688 918.187h716.3v99.902h-716.3v-99.902z",
          "M233.688-5.162h716.3v99.902h-716.3v-99.902z",
          "M921.1-4.579h114.888v1024h-114.888v-1024z",
          "M162.841-4.579h114.888v1024h-114.888v-1024z",
          "M368.224 169.668h458.386v133.203h-458.386v-133.203z",
          "M368.224 388.87h121.548v99.902h-121.548v-99.902z",
          "M536.643 388.87h121.548v99.902h-121.548v-99.902z",
          "M705.061 388.87h121.548v99.902h-121.548v-99.902z",
          "M368.224 558.871h121.548v99.902h-121.548v-99.902z",
          "M536.643 558.871h121.548v99.902h-121.548v-99.902z",
          "M711.722 558.788h108.228v269.986h-108.228v-269.986z",
          "M368.224 728.872h121.548v99.902h-121.548v-99.902z",
          "M536.643 728.872h121.548v99.902h-121.548v-99.902z"
        ],
        "attrs": [
          {},
          {},
          {},
          {},
          {},
          {},
          {},
          {},
          {},
          {},
          {},
          {},
          {}
        ],
        "width": 1199,
        "isMulticolor": false,
        "isMulticolor2": false,
        "grid": 0,
        "tags": [
          "calculator"
        ],
        "colorPermutations": {
          "13531321": [
            {},
            {},
            {},
            {},
            {},
            {},
            {},
            {},
            {},
            {},
            {},
            {},
            {}
          ]
        }
      },
      "attrs": [
        {},
        {},
        {},
        {},
        {},
        {},
        {},
        {},
        {},
        {},
        {},
        {},
        {}
      ],
      "properties": {
        "order": 7,
        "id": 63,
        "name": "calculator",
        "prevSize": 32,
        "code": 59652
      },
      "setIdx": 4,
      "setId": 0,
      "iconIdx": 5
    },
    {
      "icon": {
        "paths": [
          "M286.72 949.24c0 40.967-33.21 74.178-74.178 74.178s-74.178-33.21-74.178-74.178c0-40.967 33.21-74.178 74.178-74.178s74.178 33.21 74.178 74.178z",
          "M948.241 949.24c0 40.967-33.21 74.178-74.178 74.178s-74.178-33.21-74.178-74.178c0-40.967 33.21-74.178 74.178-74.178s74.178 33.21 74.178 74.178z",
          "M136.617 815.87h809.709v-100.568h-694.155v-125.96h779.322l127.958-394.948h-907.447v-194.976h-212.626v100.485h97.238zM1021.253 295.045l-62.772 193.811h-706.31v-193.811z"
        ],
        "attrs": [
          {},
          {},
          {}
        ],
        "width": 1199,
        "isMulticolor": false,
        "isMulticolor2": false,
        "grid": 0,
        "tags": [
          "cart"
        ],
        "colorPermutations": {
          "13531321": [
            {},
            {},
            {}
          ]
        }
      },
      "attrs": [
        {},
        {},
        {}
      ],
      "properties": {
        "order": 6,
        "id": 62,
        "name": "cart",
        "prevSize": 32,
        "code": 59653
      },
      "setIdx": 4,
      "setId": 0,
      "iconIdx": 6
    },
    {
      "icon": {
        "paths": [
          "M426.417 690.409l40.294-95.657c-26.156-30.38-42.084-70.216-42.084-113.771 0-96.556 78.274-174.829 174.829-174.829s174.829 78.274 174.829 174.829c0 43.556-15.928 83.392-42.277 114.001l0.193-0.229 40.294 95.657c60.595-50.236 98.903-125.528 98.903-209.767 0-150.167-121.734-271.901-271.901-271.901s-271.901 121.734-271.901 271.901c0 84.239 38.308 159.53 98.453 209.404l0.45 0.363z",
          "M599.415 547.132c39.22 0 71.014-31.794 71.014-71.014s-31.794-71.014-71.014-71.014c-39.191 0-70.967 31.747-71.014 70.926l-0 0.005c-0 39.237 31.784 71.050 71.009 71.097l0.005 0z",
          "M541.388 595.335h116.137v428.082h-116.137v-428.082z",
          "M599.415-0.583c-0.044-0-0.095-0-0.146-0-265.758 0-481.197 215.439-481.197 481.197 0 170.841 89.030 320.888 223.225 406.275l1.951 1.16 39.711-94.574c-99.591-69.576-163.923-183.668-163.923-312.786 0-210.077 170.301-380.379 380.379-380.379s380.379 170.301 380.379 380.379c0 129.118-64.333 243.21-162.693 311.971l-1.23 0.814 39.794 94.574c136.146-86.548 225.176-236.595 225.176-407.436 0-265.758-215.439-481.197-481.197-481.197-0.081 0-0.161 0-0.242 0l0.013-0z"
        ],
        "attrs": [
          {},
          {},
          {},
          {}
        ],
        "width": 1199,
        "isMulticolor": false,
        "isMulticolor2": false,
        "grid": 0,
        "tags": [
          "cast"
        ],
        "colorPermutations": {
          "13531321": [
            {},
            {},
            {},
            {}
          ]
        }
      },
      "attrs": [
        {},
        {},
        {},
        {}
      ],
      "properties": {
        "order": 5,
        "id": 61,
        "name": "cast",
        "prevSize": 32,
        "code": 59654
      },
      "setIdx": 4,
      "setId": 0,
      "iconIdx": 7
    },
    {
      "icon": {
        "paths": [
          "M87.581 306.867l81.254-81.171 420.756 420.673 420.756-420.673 81.254 81.171-502.010 502.010-502.010-502.010z"
        ],
        "attrs": [
          {}
        ],
        "width": 1199,
        "isMulticolor": false,
        "isMulticolor2": false,
        "grid": 0,
        "tags": [
          "chevrondown"
        ],
        "colorPermutations": {
          "13531321": [
            {}
          ]
        }
      },
      "attrs": [
        {}
      ],
      "properties": {
        "order": 9,
        "id": 60,
        "name": "chevrondown",
        "prevSize": 32,
        "code": 59655
      },
      "setIdx": 4,
      "setId": 0,
      "iconIdx": 8
    },
    {
      "icon": {
        "paths": [
          "M502.010 1019.255l-502.010-502.010 502.010-501.927 81.254 81.171-420.756 420.756 420.756 420.756-81.254 81.254z"
        ],
        "attrs": [
          {}
        ],
        "width": 1199,
        "isMulticolor": false,
        "isMulticolor2": false,
        "grid": 0,
        "tags": [
          "chevronleft"
        ],
        "colorPermutations": {
          "13531321": [
            {}
          ]
        }
      },
      "attrs": [
        {}
      ],
      "properties": {
        "order": 10,
        "id": 59,
        "name": "chevronleft",
        "prevSize": 32,
        "code": 59656
      },
      "setIdx": 4,
      "setId": 0,
      "iconIdx": 9
    },
    {
      "icon": {
        "paths": [
          "M680.669 1019.255l-81.254-81.254 420.756-420.756-420.756-420.756 81.254-81.171 502.010 501.927-502.010 502.010z"
        ],
        "attrs": [
          {}
        ],
        "width": 1199,
        "isMulticolor": false,
        "isMulticolor2": false,
        "grid": 0,
        "tags": [
          "chevronright"
        ],
        "colorPermutations": {
          "13531321": [
            {}
          ]
        }
      },
      "attrs": [
        {}
      ],
      "properties": {
        "order": 11,
        "id": 58,
        "name": "chevronright",
        "prevSize": 32,
        "code": 59657
      },
      "setIdx": 4,
      "setId": 0,
      "iconIdx": 10
    },
    {
      "icon": {
        "paths": [
          "M1101.424 727.623l-81.254 81.254-420.756-420.756-420.756 420.756-81.254-81.254 502.010-501.927 502.010 501.927z"
        ],
        "attrs": [
          {}
        ],
        "width": 1199,
        "isMulticolor": false,
        "isMulticolor2": false,
        "grid": 0,
        "tags": [
          "chevronup"
        ],
        "colorPermutations": {
          "13531321": [
            {}
          ]
        }
      },
      "attrs": [
        {}
      ],
      "properties": {
        "order": 12,
        "id": 57,
        "name": "chevronup",
        "prevSize": 32,
        "code": 59658
      },
      "setIdx": 4,
      "setId": 0,
      "iconIdx": 11
    },
    {
      "icon": {
        "paths": [
          "M73.179-0.583v1024h1039.069v-1024zM996.693 923.015h-808.044v-823.113h808.044z",
          "M432.411 736.697l160.26-160.343 160.343 160.343 65.103-65.103-160.343-160.343 160.343-160.26-65.103-65.103-160.343 160.26-160.26-160.26-65.103 65.103 160.26 160.26-160.26 160.343 65.103 65.103z"
        ],
        "attrs": [
          {},
          {}
        ],
        "width": 1199,
        "isMulticolor": false,
        "isMulticolor2": false,
        "grid": 0,
        "tags": [
          "closebox"
        ],
        "colorPermutations": {
          "13531321": [
            {},
            {}
          ]
        }
      },
      "attrs": [
        {},
        {}
      ],
      "properties": {
        "order": 13,
        "id": 56,
        "name": "closebox",
        "prevSize": 32,
        "code": 59659
      },
      "setIdx": 4,
      "setId": 0,
      "iconIdx": 12
    },
    {
      "icon": {
        "paths": [
          "M599.331 590.923l-81.587-81.67-330.011 330.011v-416.76h-100.485v598.832h598.915v-100.402h-416.843l330.011-330.011z",
          "M512.666-2.664v100.402h416.593l-329.928 329.928 81.67 81.587 330.094-330.094v417.009h100.402v-598.832h-598.832z"
        ],
        "attrs": [
          {},
          {}
        ],
        "width": 1199,
        "isMulticolor": false,
        "isMulticolor2": false,
        "grid": 0,
        "tags": [
          "doublearrowdiag"
        ],
        "colorPermutations": {
          "13531321": [
            {},
            {}
          ]
        }
      },
      "attrs": [
        {},
        {}
      ],
      "properties": {
        "order": 14,
        "id": 55,
        "name": "doublearrowdiag",
        "prevSize": 32,
        "code": 59660
      },
      "setIdx": 4,
      "setId": 0,
      "iconIdx": 13
    },
    {
      "icon": {
        "paths": [
          "M884.553 1023.251l-70.681-70.598 240.848-240.848-240.848-240.765 70.681-70.681 311.446 311.446-311.446 311.446z",
          "M311.446 661.854h831.438v99.902h-831.438v-99.902z",
          "M311.446 623.641l-311.446-311.446 311.446-311.446 70.681 70.598-240.848 240.848 240.848 240.765-70.681 70.681z",
          "M53.115 262.244h831.272v99.902h-831.272v-99.902z"
        ],
        "attrs": [
          {},
          {},
          {},
          {}
        ],
        "width": 1199,
        "isMulticolor": false,
        "isMulticolor2": false,
        "grid": 0,
        "tags": [
          "doublearrows"
        ],
        "colorPermutations": {
          "13531321": [
            {},
            {},
            {},
            {}
          ]
        }
      },
      "attrs": [
        {},
        {},
        {},
        {}
      ],
      "properties": {
        "order": 15,
        "id": 54,
        "name": "doublearrows",
        "prevSize": 32,
        "code": 59661
      },
      "setIdx": 4,
      "setId": 0,
      "iconIdx": 14
    },
    {
      "icon": {
        "paths": [
          "M938.417 300.040l-277.562 277.562v-578.185h-115.554v578.185l-277.646-277.562-71.014 71.014 406.436 406.436 406.436-406.436-71.097-71.014z",
          "M52.782 922.932h1100.592v100.485h-1100.592v-100.485z"
        ],
        "attrs": [
          {},
          {}
        ],
        "width": 1199,
        "isMulticolor": false,
        "isMulticolor2": false,
        "grid": 0,
        "tags": [
          "download"
        ],
        "colorPermutations": {
          "13531321": [
            {},
            {}
          ]
        }
      },
      "attrs": [
        {},
        {}
      ],
      "properties": {
        "order": 16,
        "id": 53,
        "name": "download",
        "prevSize": 32,
        "code": 59662
      },
      "setIdx": 4,
      "setId": 0,
      "iconIdx": 15
    },
    {
      "icon": {
        "paths": [
          "M485.526 638.127l112.39-29.804 530.399-529.4-82.42-82.669-530.482 529.4-29.887 112.473z",
          "M867.403 925.013h-655.193v-679.42h441.985l99.902-99.902h-656.692v879.225h884.886v-659.689l-114.888 114.888v444.899z"
        ],
        "attrs": [
          {},
          {}
        ],
        "width": 1199,
        "isMulticolor": false,
        "isMulticolor2": false,
        "grid": 0,
        "tags": [
          "edit"
        ],
        "colorPermutations": {
          "13531321": [
            {},
            {}
          ]
        }
      },
      "attrs": [
        {},
        {}
      ],
      "properties": {
        "order": 17,
        "id": 52,
        "name": "edit",
        "prevSize": 32,
        "code": 59663
      },
      "setIdx": 4,
      "setId": 0,
      "iconIdx": 16
    },
    {
      "icon": {
        "paths": [
          "M292.464-0.583v209.795h-212.959v814.205h807.545v-1024zM407.935 99.902h363.895v823.612h-576.853v-613.817h212.959z",
          "M1120.739 80.338l-561.368 501.26-36.298 111.058 114.388-23.644 561.368-501.26-78.090-87.415z"
        ],
        "attrs": [
          {},
          {}
        ],
        "width": 1199,
        "isMulticolor": false,
        "isMulticolor2": false,
        "grid": 0,
        "tags": [
          "editfold"
        ],
        "colorPermutations": {
          "13531321": [
            {},
            {}
          ]
        }
      },
      "attrs": [
        {},
        {}
      ],
      "properties": {
        "order": 18,
        "id": 51,
        "name": "editfold",
        "prevSize": 32,
        "code": 59664
      },
      "setIdx": 4,
      "setId": 0,
      "iconIdx": 17
    },
    {
      "icon": {
        "paths": [
          "M679.836-0.583v102.15h246.926l-497.681 497.681 83.086 83.086 497.681-497.681v246.676h102.15v-431.912h-432.161z",
          "M909.778 1023.417v-594.253l-117.469 117.469v373.968h-588.009v-615.149h374.135l102.15-102.15h-593.753v820.116h822.946z"
        ],
        "attrs": [
          {},
          {}
        ],
        "width": 1199,
        "isMulticolor": false,
        "isMulticolor2": false,
        "grid": 0,
        "tags": [
          "external"
        ],
        "colorPermutations": {
          "13531321": [
            {},
            {}
          ]
        }
      },
      "attrs": [
        {},
        {}
      ],
      "properties": {
        "order": 19,
        "id": 50,
        "name": "external",
        "prevSize": 32,
        "code": 59665
      },
      "setIdx": 4,
      "setId": 0,
      "iconIdx": 18
    },
    {
      "icon": {
        "paths": [
          "M599.415 177.826c-331.010 0-532.813 356.235-532.813 356.235s201.803 331.26 532.813 331.26 532.813-331.26 532.813-331.26-201.803-356.235-532.813-356.235zM760.424 415.677c0 0.114 0 0.249 0 0.384 0 88.923-72.086 161.009-161.009 161.009s-161.009-72.086-161.009-161.009c0-36.73 12.299-70.587 33.003-97.678l-0.285 0.389c37.996-15.452 82.076-24.419 128.25-24.419s90.254 8.967 130.593 25.255l-2.343-0.836c20.436 26.566 32.764 60.292 32.801 96.897l0 0.009zM911.943 613.068c-99.819 89.995-204.967 135.618-312.528 135.618-183.82 0-323.601-136.533-390.286-217.288 34.149-45.038 71.207-84.657 111.945-120.16l0.944-0.806c0 1.748 0 3.497 0 5.245 0 153.293 124.269 277.562 277.562 277.562s277.562-124.269 277.562-277.562v0c0-1.832 0-3.497 0-5.245 41.685 36.33 78.743 75.976 111.467 119.093l1.423 1.956c-24.56 29.638-50.101 56.286-77.427 80.997l-0.663 0.59z"
        ],
        "attrs": [
          {}
        ],
        "width": 1199,
        "isMulticolor": false,
        "isMulticolor2": false,
        "grid": 0,
        "tags": [
          "eye"
        ],
        "colorPermutations": {
          "13531321": [
            {}
          ]
        }
      },
      "attrs": [
        {}
      ],
      "properties": {
        "order": 20,
        "id": 49,
        "name": "eye",
        "prevSize": 32,
        "code": 59666
      },
      "setIdx": 4,
      "setId": 0,
      "iconIdx": 19
    },
    {
      "icon": {
        "paths": [
          "M599.415-0.583c-282.77-0-512 229.23-512 512s229.23 512 512 512c282.77 0 512-229.23 512-512v0c-0.331-282.636-229.364-511.669-511.968-512l-0.032-0zM599.415 893.294c-13.996-19.292-27.798-41.344-40.102-64.318l-1.524-3.116c-20.44-37.398-38.263-80.844-51.185-126.353l-1.097-4.519h188.15c-14.133 50-32.064 93.41-54.289 134.14l1.674-3.351c-13.837 26.13-27.639 48.21-42.808 69.239l1.182-1.721zM485.526 593.587c-2.968-24.519-4.662-52.91-4.662-81.697 0-0.078 0-0.157 0-0.235l-0 0.012c0.031-29.059 1.967-57.635 5.688-85.647l-0.36 3.31h226.529c3.321 24.711 5.227 53.292 5.245 82.315l0 0.021c0 0.103 0 0.225 0 0.347 0 28.743-1.694 57.091-4.987 84.949l0.325-3.375zM188.899 511.417c-0-0.014-0-0.031-0-0.047 0-29.129 3.031-57.551 8.796-84.966l-0.471 2.677h186.568c-2.81 24.614-4.412 53.141-4.412 82.042 0 0.104 0 0.207 0 0.311l-0-0.016c0.017 28.874 1.528 57.372 4.461 85.448l-0.299-3.528h-186.401c-5.241-24.621-8.242-52.909-8.242-81.898 0-0.008 0-0.016 0-0.023l-0 0.001zM507.338 327.513c22.050-74.243 53.457-139.011 93.591-197.304l-1.515 2.327c38.853 55.941 70.356 120.723 91.090 190.152l1.237 4.824zM815.37 428.998h186.568c5.261 24.702 8.273 53.084 8.273 82.17s-3.013 57.467-8.743 84.85l0.469-2.68h-186.568c2.634-24.548 4.146-53.046 4.163-81.894l0-0.026c-0.014-29.022-1.647-57.647-4.813-85.807l0.317 3.471zM966.639 327.513h-169.668c-20.343-80.164-50.3-150.593-89.289-214.94l1.957 3.48c113.005 32.499 204.162 108.931 255.501 209.136l1.082 2.325zM489.605 116.053c-37.033 60.868-66.99 131.297-86.155 206.051l-1.176 5.409h-169.668c52.412-102.536 143.573-178.971 253.672-210.741l2.91-0.719zM232.356 694.905h168.086c19.080 79.861 48.528 150.238 87.43 214.232l-1.847-3.272c-111.755-33.099-201.769-109.185-252.587-208.63l-1.082-2.331zM712.804 905.865c37.053-60.724 66.5-131.1 84.556-205.919l1.027-5.041h168.086c-51.9 101.776-141.914 177.862-250.751 210.216l-2.917 0.744z"
        ],
        "attrs": [
          {}
        ],
        "width": 1199,
        "isMulticolor": false,
        "isMulticolor2": false,
        "grid": 0,
        "tags": [
          "globe"
        ],
        "colorPermutations": {
          "13531321": [
            {}
          ]
        }
      },
      "attrs": [
        {}
      ],
      "properties": {
        "order": 25,
        "id": 48,
        "name": "globe",
        "prevSize": 32,
        "code": 59667
      },
      "setIdx": 4,
      "setId": 0,
      "iconIdx": 20
    },
    {
      "icon": {
        "paths": [
          "M1021.586 731.785v-285.388l64.187-26.724v396.946h113.056v-441.236l-2.997-1.332-597.916-249.173-597.916 249.007 175.579 73.095v285.055l422.338 181.323zM597.916 236.103l330.677 137.699-330.677 137.782-330.76-137.699zM908.529 677.339l-310.613 129.54-309.281-128.791v-184.070l309.281 128.791 310.613-129.374z"
        ],
        "attrs": [
          {}
        ],
        "width": 1199,
        "isMulticolor": false,
        "isMulticolor2": false,
        "grid": 0,
        "tags": [
          "gradhat"
        ],
        "colorPermutations": {
          "13531321": [
            {}
          ]
        }
      },
      "attrs": [
        {}
      ],
      "properties": {
        "order": 26,
        "id": 47,
        "name": "gradhat",
        "prevSize": 32,
        "code": 59668
      },
      "setIdx": 4,
      "setId": 0,
      "iconIdx": 21
    },
    {
      "icon": {
        "paths": [
          "M651.614-6.91h-564.033v1028.163h1027.996v-1028.163zM187.484 92.993h364.228v364.228h-364.228zM551.711 921.35h-364.228v-364.228h364.228zM1015.841 921.35h-364.228v-364.228h364.061zM651.614 457.22v-364.228h364.061v364.228z"
        ],
        "attrs": [
          {}
        ],
        "width": 1199,
        "isMulticolor": false,
        "isMulticolor2": false,
        "grid": 0,
        "tags": [
          "grid"
        ],
        "colorPermutations": {
          "13531321": [
            {}
          ]
        }
      },
      "attrs": [
        {}
      ],
      "properties": {
        "order": 31,
        "id": 46,
        "name": "grid",
        "prevSize": 32,
        "code": 59669
      },
      "setIdx": 4,
      "setId": 0,
      "iconIdx": 22
    },
    {
      "icon": {
        "paths": [
          "M599.415-0.583c-247.481 0.284-448.028 200.83-448.312 448.284l-0 0.028v100.818h164.256c28.612-1.636 51.194-25.238 51.194-54.114s-22.582-52.477-51.050-54.107l-0.144-0.007h-48.952c2.14-182.291 150.413-329.242 333.008-329.242 183.927 0 333.030 149.102 333.030 333.030 0 1.332-0.008 2.662-0.023 3.99l0.002-0.202v229.193l-252.67 206.465c-15.935-34.651-50.349-58.276-90.281-58.276-54.715 0-99.070 44.355-99.070 99.070 0 54.581 44.139 98.853 98.669 99.069l0.021 0h101.9l356.985-291.382v-284.306c-0.285-247.57-200.973-448.17-448.549-448.312l-0.013-0z"
        ],
        "attrs": [
          {}
        ],
        "width": 1199,
        "isMulticolor": false,
        "isMulticolor2": false,
        "grid": 0,
        "tags": [
          "headset"
        ],
        "colorPermutations": {
          "13531321": [
            {}
          ]
        }
      },
      "attrs": [
        {}
      ],
      "properties": {
        "order": 32,
        "id": 45,
        "name": "headset",
        "prevSize": 32,
        "code": 59670
      },
      "setIdx": 4,
      "setId": 0,
      "iconIdx": 23
    },
    {
      "icon": {
        "paths": [
          "M587.593 708.225c-1.354-0.106-2.931-0.167-4.523-0.167-33.978 0-61.523 27.545-61.523 61.523s27.545 61.523 61.523 61.523c1.592 0 3.169-0.060 4.731-0.179l-0.208 0.013c37.297 0 66.602-26.724 66.602-60.94-1.402-34.432-29.655-61.814-64.304-61.814-0.808 0-1.613 0.015-2.414 0.044l0.116-0.003z",
          "M588.425 206.215c-37.542 0.607-73.592 5.855-107.958 15.194l3.060-0.709-3.164 0.833v98.82l5.661-2.081c27.32-10.967 58.956-17.705 92.057-18.558l0.353-0.007c37.297 0 100.485 12.488 100.485 59.192 0 30.054-22.645 49.951-51.367 74.927-41.127 35.715-92.243 80.172-92.243 176.161v45.622h106.396v-32.052c0-69.349 34.966-101.484 72.013-135.534s74.094-68.1 74.094-139.863c-0-98.404-100.152-141.945-199.389-141.945z",
          "M599.415-0.583c-282.77-0-512 229.23-512 512s229.23 512 512 512c282.77 0 512-229.23 512-512v0c-0.331-282.636-229.364-511.669-511.968-512l-0.032-0zM599.415 918.020c-224.561 0-406.603-182.042-406.603-406.603s182.042-406.603 406.603-406.603c224.561 0 406.603 182.042 406.603 406.603v0c-0.284 224.447-182.157 406.319-406.576 406.603l-0.027 0z"
        ],
        "attrs": [
          {},
          {},
          {}
        ],
        "width": 1199,
        "isMulticolor": false,
        "isMulticolor2": false,
        "grid": 0,
        "tags": [
          "help"
        ],
        "colorPermutations": {
          "13531321": [
            {},
            {},
            {}
          ]
        }
      },
      "attrs": [
        {},
        {},
        {}
      ],
      "properties": {
        "order": 37,
        "id": 44,
        "name": "help",
        "prevSize": 32,
        "code": 59671
      },
      "setIdx": 4,
      "setId": 0,
      "iconIdx": 24
    },
    {
      "icon": {
        "paths": [
          "M1107.335 1021.336h-115.804v-467.71l-392.117-392.367-392.117 392.367v467.71h-115.804v-515.663l507.921-508.337 507.921 508.337v515.663z"
        ],
        "attrs": [
          {}
        ],
        "width": 1199,
        "isMulticolor": false,
        "isMulticolor2": false,
        "grid": 0,
        "tags": [
          "house"
        ],
        "colorPermutations": {
          "13531321": [
            {}
          ]
        }
      },
      "attrs": [
        {}
      ],
      "properties": {
        "order": 38,
        "id": 43,
        "name": "house",
        "prevSize": 32,
        "code": 59672
      },
      "setIdx": 4,
      "setId": 0,
      "iconIdx": 25
    },
    {
      "icon": {
        "paths": [
          "M541.554 395.197h114.971v282.308h-114.971v-282.308z",
          "M1061.796-1.582h-924.764v868.818h316.358l146.024 155.182 146.773-155.182h315.275zM945.66 767.251h-242.18l-104.065 109.643-103.316-109.643h-243.096v-668.93h692.657z",
          "M598.915 355.153c36.139 0 65.436-29.297 65.436-65.436s-29.297-65.436-65.436-65.436c-36.11 0-65.389 29.249-65.436 65.348l-0 0.005c-0 36.156 29.287 65.472 65.432 65.519l0.005 0z"
        ],
        "attrs": [
          {},
          {},
          {}
        ],
        "width": 1199,
        "isMulticolor": false,
        "isMulticolor2": false,
        "grid": 0,
        "tags": [
          "infobox"
        ],
        "colorPermutations": {
          "13531321": [
            {},
            {},
            {}
          ]
        }
      },
      "attrs": [
        {},
        {},
        {}
      ],
      "properties": {
        "order": 43,
        "id": 42,
        "name": "infobox",
        "prevSize": 32,
        "code": 59673
      },
      "setIdx": 4,
      "setId": 0,
      "iconIdx": 26
    },
    {
      "icon": {
        "paths": [
          "M539.473 385.124h659.356v99.902h-659.356v-99.902z",
          "M474.87 435.075c0 34.806-28.216 63.022-63.022 63.022s-63.022-28.216-63.022-63.022c0-34.806 28.216-63.022 63.022-63.022s63.022 28.216 63.022 63.022z",
          "M539.473 647.784h659.356v99.902h-659.356v-99.902z",
          "M474.953 697.735c0 34.852-28.253 63.105-63.105 63.105s-63.105-28.253-63.105-63.105c0-34.852 28.253-63.105 63.105-63.105s63.105 28.253 63.105 63.105z",
          "M539.473 910.444h659.356v99.902h-659.356v-99.902z",
          "M474.87 960.395c0 34.806-28.216 63.022-63.022 63.022s-63.022-28.216-63.022-63.022c0-34.806 28.216-63.022 63.022-63.022s63.022 28.216 63.022 63.022z"
        ],
        "attrs": [
          {},
          {},
          {},
          {},
          {},
          {}
        ],
        "width": 1199,
        "isMulticolor": false,
        "isMulticolor2": false,
        "grid": 0,
        "tags": [
          "list"
        ],
        "colorPermutations": {
          "13531321": [
            {},
            {},
            {},
            {},
            {},
            {}
          ]
        }
      },
      "attrs": [
        {},
        {},
        {},
        {},
        {},
        {}
      ],
      "properties": {
        "order": 44,
        "id": 41,
        "name": "list",
        "prevSize": 32,
        "code": 59674
      },
      "setIdx": 4,
      "setId": 0,
      "iconIdx": 27
    },
    {
      "icon": {
        "paths": [
          "M1121.072 118.634l-558.954 499.179-36.131 110.559 113.889-23.477 558.954-499.179-77.757-87.082z",
          "M235.104 259.58h202.053v91.744h-202.053v-91.744z",
          "M235.104 464.963h202.053v91.744h-202.053v-91.744z",
          "M235.104 671.511h202.053v91.744h-202.053v-91.744z",
          "M855.997-0.583h-837.016v1024h837.016zM134.119 99.32h606.824v824.195h-606.824z"
        ],
        "attrs": [
          {},
          {},
          {},
          {},
          {}
        ],
        "width": 1199,
        "isMulticolor": false,
        "isMulticolor2": false,
        "grid": 0,
        "tags": [
          "listedit"
        ],
        "colorPermutations": {
          "13531321": [
            {},
            {},
            {},
            {},
            {}
          ]
        }
      },
      "attrs": [
        {},
        {},
        {},
        {},
        {}
      ],
      "properties": {
        "order": 45,
        "id": 40,
        "name": "listedit",
        "prevSize": 32,
        "code": 59675
      },
      "setIdx": 4,
      "setId": 0,
      "iconIdx": 28
    },
    {
      "icon": {
        "paths": [
          "M397.945 539.223h271.984v91.577h-271.984v-91.577z",
          "M397.945 359.149h271.984v91.577h-271.984v-91.577z",
          "M397.945 179.158h271.984v91.577h-271.984v-91.577z",
          "M845.091 813.705v-817.535h-621.976v817.535zM730.204 96.822v617.564h-392.2v-617.564z",
          "M787.647 202.635v99.902h175.745v617.314h-392.2v-157.18h-114.888v257.499h621.976v-817.535h-290.633z"
        ],
        "attrs": [
          {},
          {},
          {},
          {},
          {}
        ],
        "width": 1199,
        "isMulticolor": false,
        "isMulticolor2": false,
        "grid": 0,
        "tags": [
          "literature"
        ],
        "colorPermutations": {
          "13531321": [
            {},
            {},
            {},
            {},
            {}
          ]
        }
      },
      "attrs": [
        {},
        {},
        {},
        {},
        {}
      ],
      "properties": {
        "order": 46,
        "id": 39,
        "name": "literature",
        "prevSize": 32,
        "code": 59676
      },
      "setIdx": 4,
      "setId": 0,
      "iconIdx": 29
    },
    {
      "icon": {
        "paths": [
          "M408.518-1.415v209.545h-213.042v814.205h807.545v-1023.75zM524.488 98.987h363.728v823.612h-577.186v-613.734h213.458z",
          "M398.527 416.593h399.61v91.577h-399.61v-91.577z",
          "M398.527 569.943h399.61v91.577h-399.61v-91.577z",
          "M398.527 723.294h399.61v91.577h-399.61v-91.577z"
        ],
        "attrs": [
          {},
          {},
          {},
          {}
        ],
        "width": 1199,
        "isMulticolor": false,
        "isMulticolor2": false,
        "grid": 0,
        "tags": [
          "literaturefold"
        ],
        "colorPermutations": {
          "13531321": [
            {},
            {},
            {},
            {}
          ]
        }
      },
      "attrs": [
        {},
        {},
        {},
        {}
      ],
      "properties": {
        "order": 57,
        "id": 38,
        "name": "literaturefold",
        "prevSize": 32,
        "code": 59677
      },
      "setIdx": 4,
      "setId": 0,
      "iconIdx": 30
    },
    {
      "icon": {
        "paths": [
          "M693.573 372.386c0 57.428-46.554 103.982-103.982 103.982s-103.982-46.554-103.982-103.982c0-57.428 46.554-103.982 103.982-103.982s103.982 46.554 103.982 103.982z",
          "M589.591 1020.587l-42.375-46.538c-34.050-37.214-332.509-370.055-332.509-601.912 0-207.066 167.86-374.926 374.926-374.926s374.926 167.86 374.926 374.926v0c0 231.857-298.459 564.699-332.509 601.912zM589.591 115.471c-0.373-0.002-0.814-0.003-1.255-0.003-142.259 0-257.704 114.805-258.74 256.82l-0.001 0.099c0 136.533 161.342 357.984 259.996 475.702 98.737-117.885 259.996-339.169 259.996-475.702-1.036-142.114-116.482-256.919-258.741-256.919-0.441 0-0.883 0.001-1.323 0.003l0.068-0z"
        ],
        "attrs": [
          {},
          {}
        ],
        "width": 1199,
        "isMulticolor": false,
        "isMulticolor2": false,
        "grid": 0,
        "tags": [
          "locationpin"
        ],
        "colorPermutations": {
          "13531321": [
            {},
            {}
          ]
        }
      },
      "attrs": [
        {},
        {}
      ],
      "properties": {
        "order": 58,
        "id": 37,
        "name": "locationpin",
        "prevSize": 32,
        "code": 59678
      },
      "setIdx": 4,
      "setId": 0,
      "iconIdx": 31
    },
    {
      "icon": {
        "paths": [
          "M524.359 284.719c-32.393 0-58.653-26.26-58.653-58.653s26.26-58.653 58.653-58.653c32.393 0 58.653 26.26 58.653 58.653v0c0 32.393-26.26 58.653-58.653 58.653v0zM1048.718 464.617l-39.8 82.785v362.141l-485.397 114.457-484.894-114.374v-362.309l-38.627-83.12 347.981-79.349c-29.41-52.955-51.28-109.262-51.28-158.531 0-125.963 102.114-228.077 228.077-228.077s228.077 102.114 228.077 228.077v0c0 49.352-22.372 105.827-51.866 159.201zM395.992 226.317c0 60.999 68.54 165.486 128.367 239.556 59.91-74.071 128.45-178.557 128.45-239.556 0-70.918-57.49-128.408-128.408-128.408s-128.408 57.49-128.408 128.408h0zM470.985 738.192l-328.039-77.003v179.73l328.039 77.003zM904.599 661.021l-328.709 77.171v179.73l328.709-77.171zM988.389 547.653l-340.188-79.936c-28.978 40.494-57.539 75.836-87.973 109.451l0.915-1.027-36.784 40.136-36.784-40.136c-29.535-32.709-58.128-68.216-84.668-105.291l-2.474-3.636-341.78 80.439 464.784 108.927z"
        ],
        "attrs": [
          {}
        ],
        "width": 1049,
        "isMulticolor": false,
        "isMulticolor2": false,
        "grid": 0,
        "tags": [
          "locationpinbox"
        ],
        "colorPermutations": {
          "13531321": [
            {},
            {},
            {}
          ]
        }
      },
      "attrs": [
        {}
      ],
      "properties": {
        "order": 59,
        "id": 36,
        "name": "locationpinbox",
        "prevSize": 32,
        "code": 59679
      },
      "setIdx": 4,
      "setId": 0,
      "iconIdx": 32
    },
    {
      "icon": {
        "paths": [
          "M617.555 662.799l33.39-36.729c16.695-18.031 160.942-179.223 160.942-295.088-2.26-105.809-88.568-190.718-194.708-190.718s-192.447 84.909-194.704 190.507l-0.004 0.211c0.25 115.698 144.998 276.89 161.192 295.088zM617.555 229.142c56.259 0.409 101.846 45.528 103.008 101.565l0.002 0.109c0 48.833-54.343 132.56-103.176 193.581-48.833-60.937-103.093-144.58-103.093-193.581 1.166-56.233 46.894-101.405 103.234-101.674l0.026-0zM617.555 368.129c-26.924 0-48.75-21.826-48.75-48.75s21.826-48.75 48.75-48.75c26.924 0 48.75 21.826 48.75 48.75v0c0 26.924-21.826 48.75-48.75 48.75v-0zM-0.167 0v1024h1198.632v-1024zM1083.602 100.171v285.404l-452.022 383.489-516.716-404.441v-264.452zM114.863 480.989l445.344 348.596-111.357 94.495h-333.904zM590.676 924.163l493.26-418.465v418.382z"
        ],
        "attrs": [
          {}
        ],
        "width": 1199,
        "isMulticolor": false,
        "isMulticolor2": false,
        "grid": 0,
        "tags": [
          "locationpinsquare"
        ],
        "colorPermutations": {
          "13531321": [
            {},
            {},
            {},
            {},
            {}
          ]
        }
      },
      "attrs": [
        {}
      ],
      "properties": {
        "order": 63,
        "id": 35,
        "name": "locationpinsquare",
        "prevSize": 32,
        "code": 59680
      },
      "setIdx": 4,
      "setId": 0,
      "iconIdx": 33
    },
    {
      "icon": {
        "paths": [
          "M510.162 682.639l33.409-36.917c17.791-19.294 170.054-188.931 170.054-310.624 0-112.37-91.094-203.464-203.464-203.464s-203.464 91.094-203.464 203.464v0c0.418 121.694 152.347 291.331 169.72 310.624zM510.162 224.846c61.112 0.362 110.662 49.356 111.92 110.217l0.002 0.118c0 53.121-59.469 144.078-111.922 209.227-52.703-65.148-111.838-156.022-111.838-209.31 1.304-60.914 50.79-109.844 111.799-110.251l0.039-0zM510.162 374.687c-28.508-0-51.618-23.11-51.618-51.618s23.11-51.618 51.618-51.618c28.508 0 51.618 23.11 51.618 51.618v0c0 28.508-23.11 51.618-51.618 51.618l-0 0zM0 0v1024h1198.564v-1024zM1083.886 100.228v270.617l-575.394 364.163-393.48-235.62v-399.16zM115.012 606.131l306.949 183.752-211.649 134.306h-95.3zM509.828 842.754l135.977 81.436h-264.436zM823.961 924.189l-227.518-136.394 487.361-309.038v445.265z"
        ],
        "attrs": [
          {}
        ],
        "width": 1199,
        "isMulticolor": false,
        "isMulticolor2": false,
        "grid": 0,
        "tags": [
          "locationpinsquareleft"
        ],
        "colorPermutations": {
          "13531321": [
            {},
            {},
            {},
            {},
            {}
          ]
        }
      },
      "attrs": [
        {}
      ],
      "properties": {
        "order": 64,
        "id": 34,
        "name": "locationpinsquareleft",
        "prevSize": 32,
        "code": 59681
      },
      "setIdx": 4,
      "setId": 0,
      "iconIdx": 34
    },
    {
      "icon": {
        "paths": [
          "M1040.068 321.186h-119.467c-7.826-184.57-143.193-321.769-321.186-321.769s-313.111 137.199-320.937 321.769h-119.716v702.231h881.306zM599.415 108.228c117.718 0 204.467 88.414 211.71 212.626h-423.337c7.326-123.796 94.075-212.626 211.627-212.626zM274.732 422.005h649.366v500.678h-649.366z",
          "M675.59 593.004c-0.109-42.034-34.21-76.066-76.259-76.066-42.117 0-76.259 34.142-76.259 76.259 0 23.581 10.703 44.662 27.516 58.65l0.124 0.1v145.025h96.989v-145.025c17.081-14.045 27.89-35.179 27.89-58.838 0-0.037-0-0.074-0-0.11l0 0.006z"
        ],
        "attrs": [
          {},
          {}
        ],
        "width": 1199,
        "isMulticolor": false,
        "isMulticolor2": false,
        "grid": 0,
        "tags": [
          "locked"
        ],
        "colorPermutations": {
          "13531321": [
            {},
            {}
          ]
        }
      },
      "attrs": [
        {},
        {}
      ],
      "properties": {
        "order": 66,
        "id": 33,
        "name": "locked",
        "prevSize": 32,
        "code": 59682
      },
      "setIdx": 4,
      "setId": 0,
      "iconIdx": 35
    },
    {
      "icon": {
        "paths": [
          "M4.745 0.083h114.971v114.971h-114.971v-114.971z",
          "M234.354 0.083h114.971v114.971h-114.971v-114.971z",
          "M463.797 0.083h114.971v114.971h-114.971v-114.971z",
          "M693.406 0.083h114.971v114.971h-114.971v-114.971z",
          "M4.745 227.278h114.971v114.971h-114.971v-114.971z",
          "M234.354 227.278h114.971v114.971h-114.971v-114.971z",
          "M4.745 454.473h114.971v114.971h-114.971v-114.971z",
          "M234.354 454.473h114.971v114.971h-114.971v-114.971z",
          "M4.745 681.751h114.971v114.971h-114.971v-114.971z",
          "M234.354 681.751h114.971v114.971h-114.971v-114.971z",
          "M4.745 908.946h114.971v114.971h-114.971v-114.971z",
          "M234.354 908.946h114.971v114.971h-114.971v-114.971z",
          "M463.797 908.946h114.971v114.971h-114.971v-114.971z",
          "M693.406 908.946h114.971v114.971h-114.971v-114.971z",
          "M927.011 592.588c15.203-33.879 24.059-73.433 24.059-115.054 0-158.581-128.555-287.136-287.136-287.136-0.029 0-0.058 0-0.087 0l-0.995-0c-51.478 0.067-99.749 13.741-141.425 37.617l1.395-0.737h-59.026v44.29l-3.83 3.663c-51.449 51.837-83.244 123.242-83.244 202.074 0 80.725 33.342 153.664 87.005 205.795l0.069 0.067v113.556h114.971v-44.623c25.385 8.185 54.59 12.904 84.897 12.904 0.036 0 0.073-0 0.109-0l0.993 0c9.657 0 19.231-0.583 28.639-1.582v33.301h114.971v-71.014c24.118-14.256 44.886-30.811 63.085-49.843l0.103-0.108 271.818 184.736 56.195-82.586zM664.434 665.1h-0.666c-103.171-0.19-186.734-83.87-186.734-187.067 0-103.314 83.753-187.067 187.067-187.067s187.067 83.753 187.067 187.067c0 103.197-83.563 186.877-186.716 187.067l-0.018 0z"
        ],
        "attrs": [
          {},
          {},
          {},
          {},
          {},
          {},
          {},
          {},
          {},
          {},
          {},
          {},
          {},
          {},
          {}
        ],
        "width": 1199,
        "isMulticolor": false,
        "isMulticolor2": false,
        "grid": 0,
        "tags": [
          "magnify-list"
        ],
        "colorPermutations": {
          "13531321": [
            {},
            {},
            {},
            {},
            {},
            {},
            {},
            {},
            {},
            {},
            {},
            {},
            {},
            {},
            {}
          ]
        }
      },
      "attrs": [
        {},
        {},
        {},
        {},
        {},
        {},
        {},
        {},
        {},
        {},
        {},
        {},
        {},
        {},
        {}
      ],
      "properties": {
        "order": 69,
        "id": 32,
        "name": "magnify-list",
        "prevSize": 32,
        "code": 59683
      },
      "setIdx": 4,
      "setId": 0,
      "iconIdx": 36
    },
    {
      "icon": {
        "paths": [
          "M1198.829 1023.417v-856.913h-1198.829v856.663zM599.415 602.079l-427.666-335.672h854.749zM442.152 595.002l-327.18 282.058v-538.89zM515.58 652.696l83.835 65.936 81.171-63.771 311.612 269.237h-790.894zM1084.191 881.889l-330.511-284.722 330.178-259.413z"
        ],
        "attrs": [
          {}
        ],
        "width": 1199,
        "isMulticolor": false,
        "isMulticolor2": false,
        "grid": 0,
        "tags": [
          "mail"
        ],
        "colorPermutations": {
          "13531321": [
            {}
          ]
        }
      },
      "attrs": [
        {}
      ],
      "properties": {
        "order": 21,
        "id": 31,
        "name": "mail",
        "prevSize": 32,
        "code": 59684
      },
      "setIdx": 4,
      "setId": 0,
      "iconIdx": 37
    },
    {
      "icon": {
        "paths": [
          "M408.518-0.583v209.795h-213.042v814.205h807.545v-1024zM524.488 99.902h363.728v823.612h-577.186v-613.817h213.458z",
          "M621.893 516.163l-10.656-4.995c-21.146-9.657-45.123-20.98-45.123-44.956 0-29.554 42.459-37.463 67.517-37.463 29.351 0.486 57.3 5.846 83.281 15.301l-1.777-0.565 5.828 2.081v-83.252l-3.413-0.833c-20.91-5.527-45.102-9.092-69.992-9.894l-0.522-0.013v-41.626h-68.267v46.954c-62.606 12.238-102.4 55.196-102.4 110.059 0 79.672 61.19 106.979 110.309 128.874 37.547 16.65 70.015 31.22 70.015 63.272 0 37.796-48.952 47.87-77.924 47.87-32.275-0.318-62.823-7.367-90.419-19.805l1.423 0.573-6.244-2.914v85.417l3.164 0.916c25.474 8.042 54.841 13.039 85.257 13.812l0.409 0.008v41.626h66.602v-48.702c60.441-9.324 107.145-61.107 107.145-119.467 0.416-84.667-60.108-112.473-124.212-142.278z"
        ],
        "attrs": [
          {},
          {}
        ],
        "width": 1199,
        "isMulticolor": false,
        "isMulticolor2": false,
        "grid": 0,
        "tags": [
          "moneyfold"
        ],
        "colorPermutations": {
          "13531321": [
            {},
            {}
          ]
        }
      },
      "attrs": [
        {},
        {}
      ],
      "properties": {
        "order": 24,
        "id": 30,
        "name": "moneyfold",
        "prevSize": 32,
        "code": 59685
      },
      "setIdx": 4,
      "setId": 0,
      "iconIdx": 38
    },
    {
      "icon": {
        "paths": [
          "M541.638 805.047v118.468h-301.456v99.902h717.716v-99.902h-301.372v-118.468h542.304v-632.715h-1198.829v632.715zM114.888 705.145v-432.911h969.054v432.911z"
        ],
        "attrs": [
          {}
        ],
        "width": 1199,
        "isMulticolor": false,
        "isMulticolor2": false,
        "grid": 0,
        "tags": [
          "monitor"
        ],
        "colorPermutations": {
          "13531321": [
            {}
          ]
        }
      },
      "attrs": [
        {}
      ],
      "properties": {
        "order": 27,
        "id": 29,
        "name": "monitor",
        "prevSize": 32,
        "code": 59686
      },
      "setIdx": 4,
      "setId": 0,
      "iconIdx": 39
    },
    {
      "icon": {
        "paths": [
          "M599.415-0.583c-182.488 0-320.021 145.025-320.021 337.337v349.659c0 192.312 137.616 337.254 320.021 337.254s320.021-145.025 320.021-337.254v-349.659c0-192.312-137.532-337.337-320.021-337.337zM811.041 328.263h-161.675v-214.873c93.825 21.895 158.179 105.147 161.675 214.873zM549.463 113.389v214.873h-161.675c3.497-109.726 67.85-192.978 161.675-214.873zM599.415 915.19c-122.713 0-211.793-96.323-211.793-229.026v-258.081h423.586v258.081c0 132.704-89.080 229.026-211.793 229.026z"
        ],
        "attrs": [
          {}
        ],
        "width": 1199,
        "isMulticolor": false,
        "isMulticolor2": false,
        "grid": 0,
        "tags": [
          "mouse"
        ],
        "colorPermutations": {
          "13531321": [
            {}
          ]
        }
      },
      "attrs": [
        {}
      ],
      "properties": {
        "order": 30,
        "id": 28,
        "name": "mouse",
        "prevSize": 32,
        "code": 59687
      },
      "setIdx": 4,
      "setId": 0,
      "iconIdx": 40
    },
    {
      "icon": {
        "paths": [
          "M671.594 862.158v-801.884l-307.949 0.083v108.311h184.736v693.489h-193.228v108.228h488.523v-108.228h-172.082z"
        ],
        "attrs": [
          {}
        ],
        "width": 1199,
        "isMulticolor": false,
        "isMulticolor2": false,
        "grid": 0,
        "tags": [
          "one"
        ],
        "colorPermutations": {
          "13531321": [
            {}
          ]
        }
      },
      "attrs": [
        {}
      ],
      "properties": {
        "order": 33,
        "id": 27,
        "name": "one",
        "prevSize": 32,
        "code": 59688
      },
      "setIdx": 4,
      "setId": 0,
      "iconIdx": 41
    },
    {
      "icon": {
        "paths": [
          "M599.415 0c-282.77 0-512 229.23-512 512s229.23 512 512 512c282.77 0 512-229.23 512-512v0c-0.331-282.636-229.364-511.669-511.968-512l-0.032-0zM599.415 918.603c-224.561 0-406.603-182.042-406.603-406.603s182.042-406.603 406.603-406.603c224.561 0 406.603 182.042 406.603 406.603v0c-0.284 224.447-182.157 406.319-406.576 406.603l-0.027 0z",
          "M459.218 297.793h91.577v428.415h-91.577v-428.415z",
          "M648.034 297.793h91.577v428.415h-91.577v-428.415z"
        ],
        "attrs": [
          {},
          {},
          {}
        ],
        "width": 1199,
        "isMulticolor": false,
        "isMulticolor2": false,
        "grid": 0,
        "tags": [
          "pause"
        ],
        "colorPermutations": {
          "13531321": [
            {},
            {},
            {}
          ]
        }
      },
      "attrs": [
        {},
        {},
        {}
      ],
      "properties": {
        "order": 39,
        "id": 25,
        "name": "pause",
        "prevSize": 32,
        "code": 59691
      },
      "setIdx": 4,
      "setId": 0,
      "iconIdx": 43
    },
    {
      "icon": {
        "paths": [
          "M900.704 595.252c72.382-57.263 118.406-145.096 118.406-243.679 0-171.179-138.768-309.947-309.947-309.947-0.066 0-0.132 0-0.199 0l0.010-0s-44.79 0-80.338 2.248c146.54 18.083 260.591 135.988 272.577 282.779l0.073 1.11c1.070 7.266 1.681 15.654 1.681 24.185s-0.611 16.918-1.792 25.122l0.111-0.938c-7.272 89.184-51.304 166.833-116.738 218.625l-0.647 0.494c152.273 69.604 259.591 213.916 275.507 384.76l0.14 1.862c1.575 12.482 2.482 26.94 2.498 41.606l0 0.020h116.137c-0.18-189.641-112.676-352.962-274.547-427.046l-2.932-1.202z",
          "M681.584 595.252c72.395-57.294 118.426-145.159 118.426-243.775 0-171.271-138.843-310.114-310.114-310.114s-310.114 138.843-310.114 310.114c0 98.616 46.031 186.481 117.779 243.281l0.647 0.495c-164.846 75.229-277.4 238.523-277.645 428.133l-0 0.032h116.137c0-195.042 158.113-353.155 353.155-353.155s353.155 158.113 353.155 353.155v0h116.137c-0.23-189.625-112.75-352.914-274.629-426.963l-2.933-1.202zM490.105 157.679c107.069 0.142 193.811 86.971 193.811 194.060 0 107.177-86.884 194.060-194.060 194.060s-194.060-86.884-194.060-194.060l-0-0c0.095-107.139 86.922-193.966 194.051-194.060l0.009-0z"
        ],
        "attrs": [
          {},
          {}
        ],
        "width": 1199,
        "isMulticolor": false,
        "isMulticolor2": false,
        "grid": 0,
        "tags": [
          "people2"
        ],
        "colorPermutations": {
          "13531321": [
            {},
            {}
          ]
        }
      },
      "attrs": [
        {},
        {}
      ],
      "properties": {
        "order": 42,
        "id": 24,
        "name": "people2",
        "prevSize": 32,
        "code": 59692
      },
      "setIdx": 4,
      "setId": 0,
      "iconIdx": 44
    },
    {
      "icon": {
        "paths": [
          "M382.127 493.685h-132.953v-140.613h-116.22v140.613h-132.953v101.068h132.953v140.529h116.22v-140.529h132.953v-101.068z",
          "M920.934 594.753c72.497-57.371 118.593-145.357 118.593-244.108 0-171.501-139.029-310.53-310.53-310.53s-310.53 139.029-310.53 310.53c0 98.752 46.096 186.737 117.945 243.614l0.648 0.495c-165.002 75.344-277.654 238.819-277.895 428.633l-0 0.032h116.553c-0-195.295 158.318-353.613 353.613-353.613s353.613 158.318 353.613 353.613v0h116.553c-0.343-189.991-113.273-353.522-275.616-427.463l-2.945-1.201zM728.955 156.597c107.269-0 194.227 86.958 194.227 194.227s-86.958 194.227-194.227 194.227c-107.239 0-194.179-86.911-194.227-194.139l-0-0.005c0.095-107.247 86.986-194.168 194.213-194.31l0.014-0z"
        ],
        "attrs": [
          {},
          {}
        ],
        "width": 1199,
        "isMulticolor": false,
        "isMulticolor2": false,
        "grid": 0,
        "tags": [
          "personadd"
        ],
        "colorPermutations": {
          "13531321": [
            {},
            {}
          ]
        }
      },
      "attrs": [
        {},
        {}
      ],
      "properties": {
        "order": 47,
        "id": 23,
        "name": "personadd",
        "prevSize": 32,
        "code": 59693
      },
      "setIdx": 4,
      "setId": 0,
      "iconIdx": 45
    },
    {
      "icon": {
        "paths": [
          "M599.415 0c-282.77 0-512 229.23-512 512s229.23 512 512 512c282.77 0 512-229.23 512-512v0c-0.331-282.636-229.364-511.669-511.968-512l-0.032-0zM599.415 918.603c-224.561 0-406.603-182.042-406.603-406.603s182.042-406.603 406.603-406.603c224.561 0 406.603 182.042 406.603 406.603v0c-0.284 224.447-182.157 406.319-406.576 406.603l-0.027 0z",
          "M430.496 512v-206.049l418.341 206.049-418.341 206.049v-206.049z"
        ],
        "attrs": [
          {},
          {}
        ],
        "width": 1199,
        "isMulticolor": false,
        "isMulticolor2": false,
        "grid": 0,
        "tags": [
          "play"
        ],
        "colorPermutations": {
          "13531321": [
            {},
            {}
          ]
        }
      },
      "attrs": [
        {},
        {}
      ],
      "properties": {
        "order": 48,
        "id": 22,
        "name": "play",
        "prevSize": 32,
        "code": 59694
      },
      "setIdx": 4,
      "setId": 0,
      "iconIdx": 46
    },
    {
      "icon": {
        "paths": [
          "M927.927 50.784l-240.682 11.905-61.607 103.233 240.682-11.822 61.607-103.316z",
          "M986.453 148.105l212.376-10.49-4.912-99.902-145.858 7.16-61.607 103.233z",
          "M264.825 183.82l240.682-11.905 61.607-103.233-240.682 11.905-61.607 103.233z",
          "M206.299 86.499l-206.299 10.157 4.912 99.986 139.78-6.91 61.607-103.233z",
          "M437.822 637.711v-192.645l391.285 192.645-391.285 192.645v-192.645z",
          "M4.995 248.091v775.326h1193.335v-775.326zM1083.858 924.098h-964.392v-576.187h964.392z"
        ],
        "attrs": [
          {},
          {},
          {},
          {},
          {},
          {}
        ],
        "width": 1199,
        "isMulticolor": false,
        "isMulticolor2": false,
        "grid": 0,
        "tags": [
          "playtake"
        ],
        "colorPermutations": {
          "13531321": [
            {},
            {},
            {},
            {},
            {},
            {}
          ]
        }
      },
      "attrs": [
        {},
        {},
        {},
        {},
        {},
        {}
      ],
      "properties": {
        "order": 49,
        "id": 21,
        "name": "playtake",
        "prevSize": 32,
        "code": 59695
      },
      "setIdx": 4,
      "setId": 0,
      "iconIdx": 47
    },
    {
      "icon": {
        "paths": [
          "M684.415 575.022h-161.342v-161.259h-82.003v161.259h-161.342v82.087h161.342v161.342h82.003v-161.342h161.342v-82.087z",
          "M912.609 1024v-815.87h-860.493v815.87zM167.004 924.098v-616.065h630.717v616.065z",
          "M286.22 0.083v262.494h114.888v-162.508h630.717v619.395h-195.393v99.902h310.28v-819.283h-860.493z"
        ],
        "attrs": [
          {},
          {},
          {}
        ],
        "width": 1199,
        "isMulticolor": false,
        "isMulticolor2": false,
        "grid": 0,
        "tags": [
          "plus"
        ],
        "colorPermutations": {
          "13531321": [
            {},
            {},
            {}
          ]
        }
      },
      "attrs": [
        {},
        {},
        {}
      ],
      "properties": {
        "order": 56,
        "id": 20,
        "name": "plus",
        "prevSize": 32,
        "code": 59696
      },
      "setIdx": 4,
      "setId": 0,
      "iconIdx": 48
    },
    {
      "icon": {
        "paths": [
          "M827.941 465.129h-182.239v-182.239h-92.576v182.239h-182.239v92.66h182.239v182.155h92.576v-182.155h182.239v-92.66z",
          "M599.415 1023.417c-282.77 0-512-229.23-512-512s229.23-512 512-512c282.77 0 512 229.23 512 512v0c-0.331 282.636-229.364 511.669-511.968 512l-0.032 0zM599.415 104.731c-224.607-0-406.686 182.080-406.686 406.686s182.080 406.686 406.686 406.686c224.607 0 406.686-182.080 406.686-406.686v0c-0.284-224.492-182.194-406.402-406.658-406.686l-0.028-0z"
        ],
        "attrs": [
          {},
          {}
        ],
        "width": 1199,
        "isMulticolor": false,
        "isMulticolor2": false,
        "grid": 0,
        "tags": [
          "pluscircle"
        ],
        "colorPermutations": {
          "13531321": [
            {},
            {}
          ]
        }
      },
      "attrs": [
        {},
        {}
      ],
      "properties": {
        "order": 55,
        "id": 19,
        "name": "pluscircle",
        "prevSize": 32,
        "code": 59697
      },
      "setIdx": 4,
      "setId": 0,
      "iconIdx": 49
    },
    {
      "icon": {
        "paths": [
          "M821.281 529.899h-176.911v-176.911h-89.912v176.911h-176.911v89.912h176.911v176.827h89.912v-176.827h176.911v-89.912z",
          "M978.711 206.881l-7.742-81.087h-968.887v898.206h1194.667v-817.119zM116.553 225.28h763.671l7.742 81.254h194.31v617.564h-965.724z"
        ],
        "attrs": [
          {},
          {}
        ],
        "width": 1199,
        "isMulticolor": false,
        "isMulticolor2": false,
        "grid": 0,
        "tags": [
          "plusfolder"
        ],
        "colorPermutations": {
          "13531321": [
            {},
            {}
          ]
        }
      },
      "attrs": [
        {},
        {}
      ],
      "properties": {
        "order": 60,
        "id": 18,
        "name": "plusfolder",
        "prevSize": 32,
        "code": 59698
      },
      "setIdx": 4,
      "setId": 0,
      "iconIdx": 50
    },
    {
      "icon": {
        "paths": [
          "M693.822 328.762l92.743-160.094-100.901-58.276-92.743 159.844c39.301 12.3 73.089 32.405 101.038 58.653l-0.137-0.127z",
          "M339.835 707.143l-92.826 160.094 100.901 58.276 92.743-159.594c-39.283-12.393-73.040-32.576-100.946-58.895l0.128 0.119z",
          "M1119.74 800.718l-469.874-272.983 301.039-80.088-26.058-98.071-478.616 127.376 127.709 479.615 97.988-26.058-80.338-301.789 469.541 272.817 58.609-100.818z",
          "M258.081 526.486l-178.992 47.953 29.971 112.723 178.742-47.62c-17.64-32.766-28.496-71.512-29.712-112.678l-0.009-0.378z",
          "M327.68 341.333l-160.177-93.159-58.276 100.901 159.844 92.743c12.387-39.147 32.509-72.787 58.731-100.615l-0.121 0.13z",
          "M507.837 258.997l-47.204-178.825-112.723 29.971 47.537 178.825c32.556-17.625 71.047-28.553 111.955-29.959l0.435-0.012z"
        ],
        "attrs": [
          {},
          {},
          {},
          {},
          {},
          {}
        ],
        "width": 1199,
        "isMulticolor": false,
        "isMulticolor2": false,
        "grid": 0,
        "tags": [
          "pointer"
        ],
        "colorPermutations": {
          "13531321": [
            {},
            {},
            {},
            {},
            {},
            {}
          ]
        }
      },
      "attrs": [
        {},
        {},
        {},
        {},
        {},
        {}
      ],
      "properties": {
        "order": 62,
        "id": 17,
        "name": "pointer",
        "prevSize": 32,
        "code": 59699
      },
      "setIdx": 4,
      "setId": 0,
      "iconIdx": 51
    },
    {
      "icon": {
        "paths": [
          "M541.721-0.583h115.304v570.693h-115.304v-570.693z",
          "M772.412 151.102v128.708c99.497 60.035 165.006 167.555 165.006 290.376 0 186.674-151.329 338.003-338.003 338.003s-338.003-151.329-338.003-338.003c0-122.821 65.508-230.341 163.491-289.527l1.514-0.849v-128.708c-165.929 69.819-280.31 231.051-280.31 418.998 0 250.355 202.953 453.307 453.307 453.307s453.307-202.953 453.307-453.307c0-187.947-114.381-349.179-277.331-417.883l-2.979-1.115z"
        ],
        "attrs": [
          {},
          {}
        ],
        "width": 1199,
        "isMulticolor": false,
        "isMulticolor2": false,
        "grid": 0,
        "tags": [
          "power"
        ],
        "colorPermutations": {
          "13531321": [
            {},
            {}
          ]
        }
      },
      "attrs": [
        {},
        {}
      ],
      "properties": {
        "order": 65,
        "id": 16,
        "name": "power",
        "prevSize": 32,
        "code": 59700
      },
      "setIdx": 4,
      "setId": 0,
      "iconIdx": 52
    },
    {
      "icon": {
        "paths": [
          "M956.483 849.837h242.347v-468.043c0-55.175-44.728-99.902-99.902-99.902v0h-154.682v-279.477h-689.577v279.477h-154.766c-55.175 0-99.902 44.728-99.902 99.902v0 468.043h242.014v170.667h714.469zM369.556 102.067h459.884v179.908h-459.884zM841.595 531.731v388.87h-484.777v-388.87h-114.888v218.204h-126.543v-351.407c0-9.196 7.455-16.65 16.65-16.65v0h935.503c9.196 0 16.65 7.455 16.65 16.65v0 351.407h-127.625v-218.204z",
          "M450.144 556.124h298.459v91.577h-298.459v-91.577z",
          "M450.144 729.205h298.459v91.577h-298.459v-91.577z"
        ],
        "attrs": [
          {},
          {},
          {}
        ],
        "width": 1199,
        "isMulticolor": false,
        "isMulticolor2": false,
        "grid": 0,
        "tags": [
          "print"
        ],
        "colorPermutations": {
          "13531321": [
            {},
            {},
            {}
          ]
        }
      },
      "attrs": [
        {},
        {},
        {}
      ],
      "properties": {
        "order": 67,
        "id": 15,
        "name": "print",
        "prevSize": 32,
        "code": 59701
      },
      "setIdx": 4,
      "setId": 0,
      "iconIdx": 53
    },
    {
      "icon": {
        "paths": [
          "M1020.836 942.913l-326.847-326.847c47.846-63.425 76.631-143.57 76.631-230.438 0-212.514-172.277-384.791-384.791-384.791s-384.791 172.277-384.791 384.791c0 212.514 172.277 384.791 384.791 384.791 85.469 0 164.429-27.865 228.292-75.007l-1.053 0.742 327.18 327.18zM193.478 577.020c-49.145-49.157-79.541-117.060-79.541-192.062 0-150.029 121.622-271.651 271.651-271.651s271.651 121.622 271.651 271.651c0 150.029-121.622 271.651-271.651 271.651-0.017 0-0.034-0-0.051-0l0.003 0c-0.211 0.001-0.461 0.001-0.711 0.001-74.788 0-142.468-30.427-191.339-79.577l-0.012-0.013z"
        ],
        "attrs": [
          {}
        ],
        "width": 1199,
        "isMulticolor": false,
        "isMulticolor2": false,
        "grid": 0,
        "tags": [
          "search"
        ],
        "colorPermutations": {
          "13531321": [
            {}
          ]
        }
      },
      "attrs": [
        {}
      ],
      "properties": {
        "order": 22,
        "id": 13,
        "name": "search",
        "prevSize": 32,
        "code": 59705
      },
      "setIdx": 4,
      "setId": 0,
      "iconIdx": 55
    },
    {
      "icon": {
        "paths": [
          "M905.949 589.008c-0.027-0-0.059-0-0.092-0-65.115 0-123.514 28.752-163.195 74.253l-0.22 0.258-236.103-114.055c2.297-11.802 3.612-25.374 3.612-39.253s-1.314-27.451-3.825-40.598l0.214 1.345 235.353-112.473c40.036 46.124 98.756 75.121 164.249 75.121 119.913 0 217.121-97.209 217.121-217.121s-97.209-217.121-217.121-217.121c-119.913 0-217.121 97.209-217.121 217.121 0 13.734 1.275 27.17 3.713 40.196l-0.209-1.345-235.187 112.224c-40.058-46.261-98.875-75.353-164.487-75.353-119.959 0-217.205 97.246-217.205 217.205s97.246 217.205 217.205 217.205c65.254 0 123.788-28.776 163.603-74.33l0.218-0.254 236.020 114.388c-2.339 11.965-3.677 25.723-3.677 39.794 0 119.959 97.246 217.205 217.205 217.205s217.205-97.246 217.205-217.205c0-119.959-97.246-217.205-217.205-217.205-0.025 0-0.049 0-0.074 0l0.004-0zM905.949 113.806c56.784 0 102.816 46.032 102.816 102.816s-46.032 102.816-102.816 102.816c-56.784 0-102.816-46.032-102.816-102.816 0-0.059 0-0.117 0-0.176l-0 0.009c0.142-56.693 46.11-102.603 102.812-102.65l0.005-0zM292.881 612.235c-56.784 0-102.816-46.032-102.816-102.816s46.032-102.816 102.816-102.816c56.784 0 102.816 46.032 102.816 102.816l-0-0c-0.047 56.765-46.051 102.769-102.812 102.816l-0.005 0zM481.363 617.147v0zM717.549 698.318v0zM905.949 909.029c-56.784 0-102.816-46.032-102.816-102.816s46.032-102.816 102.816-102.816c56.784 0 102.816 46.032 102.816 102.816v0c-0.047 56.765-46.051 102.769-102.812 102.816l-0.005 0z"
        ],
        "attrs": [
          {}
        ],
        "width": 1199,
        "isMulticolor": false,
        "isMulticolor2": false,
        "grid": 0,
        "tags": [
          "share"
        ],
        "colorPermutations": {
          "13531321": [
            {}
          ]
        }
      },
      "attrs": [
        {}
      ],
      "properties": {
        "order": 23,
        "id": 12,
        "name": "share",
        "prevSize": 32,
        "code": 59706
      },
      "setIdx": 4,
      "setId": 0,
      "iconIdx": 56
    },
    {
      "icon": {
        "paths": [
          "M842.844 189.065h-8.325v108.228h8.325c118.35 0 214.291 95.941 214.291 214.291s-95.941 214.291-214.291 214.291v0h-8.325v108.228h8.325c175.788-2.915 317.172-146.102 317.172-322.31s-141.384-319.395-316.898-322.307l-0.273-0.004z",
          "M834.352 413.013c0.853-0.027 1.856-0.042 2.862-0.042 54.347 0 98.404 44.057 98.404 98.404s-44.057 98.404-98.404 98.404c-1.006 0-2.009-0.015-3.008-0.045l0.146 0.003z",
          "M33.634 378.63h114.888v264.991h-114.888v-264.991z",
          "M732.618 37.463l-491.187 341.333v265.158l491.187 341.333zM356.735 420.423l260.829-180.74v544.385l-260.995-181.156z"
        ],
        "attrs": [
          {},
          {},
          {},
          {}
        ],
        "width": 1199,
        "isMulticolor": false,
        "isMulticolor2": false,
        "grid": 0,
        "tags": [
          "sound"
        ],
        "colorPermutations": {
          "13531321": [
            {},
            {},
            {},
            {}
          ]
        }
      },
      "attrs": [
        {},
        {},
        {},
        {}
      ],
      "properties": {
        "order": 28,
        "id": 11,
        "name": "sound",
        "prevSize": 32,
        "code": 59707
      },
      "setIdx": 4,
      "setId": 0,
      "iconIdx": 57
    },
    {
      "icon": {
        "paths": [
          "M1073.202 832.021h125.627v-553.127h-369.306v-219.203h-829.523v553.127h125.627l0.083-443.9h578.269v334.174h-434.326l-144.026 109.726v135.118l179.575-135.118h64.104v219.203h524.321l179.575 135.035v-135.035l-144.026-109.809h-434.326v-109.393h334.673v-224.697h243.595z"
        ],
        "attrs": [
          {}
        ],
        "width": 1199,
        "isMulticolor": false,
        "isMulticolor2": false,
        "grid": 0,
        "tags": [
          "speechbubble"
        ],
        "colorPermutations": {
          "13531321": [
            {}
          ]
        }
      },
      "attrs": [
        {}
      ],
      "properties": {
        "order": 29,
        "id": 10,
        "name": "speechbubble",
        "prevSize": 32,
        "code": 59708
      },
      "setIdx": 4,
      "setId": 0,
      "iconIdx": 58
    },
    {
      "icon": {
        "paths": [
          "M823.696 623.058v-379.047h375.134v-99.986h-490.021v379.296h-339.086v399.943h-369.722v100.152h484.61v-400.359h339.086z"
        ],
        "attrs": [
          {}
        ],
        "width": 1199,
        "isMulticolor": false,
        "isMulticolor2": false,
        "grid": 0,
        "tags": [
          "stairs"
        ],
        "colorPermutations": {
          "13531321": [
            {}
          ]
        }
      },
      "attrs": [
        {}
      ],
      "properties": {
        "order": 34,
        "id": 9,
        "name": "stairs",
        "prevSize": 32,
        "code": 59709
      },
      "setIdx": 4,
      "setId": 0,
      "iconIdx": 59
    },
    {
      "icon": {
        "paths": [
          "M599.831 700.399l-156.014 115.054 60.025-184.403-156.014-112.307h193.061l58.942-186.818 59.192 186.818h192.895l-155.931 112.307 60.025 184.403-156.181-115.054z",
          "M941.664 201.969l-7.742-81.42h-930.674v901.287h1198.829v-819.866zM118.218 220.451h724.293l7.742 81.42h236.353v619.728h-968.388z"
        ],
        "attrs": [
          {},
          {}
        ],
        "width": 1199,
        "isMulticolor": false,
        "isMulticolor2": false,
        "grid": 0,
        "tags": [
          "starfolder"
        ],
        "colorPermutations": {
          "13531321": [
            {},
            {}
          ]
        }
      },
      "attrs": [
        {},
        {}
      ],
      "properties": {
        "order": 35,
        "id": 8,
        "name": "starfolder",
        "prevSize": 32,
        "code": 59710
      },
      "setIdx": 4,
      "setId": 0,
      "iconIdx": 60
    },
    {
      "icon": {
        "paths": [
          "M1111.415 569.277v-115.637l-142.278-14.236c-10.4-52.469-30.386-98.945-58.192-139.655l0.832 1.29 90.578-110.725-81.753-82.087-110.725 90.828c-39.413-27.033-85.886-47.073-135.97-57.126l-2.395-0.401-14.319-142.111h-115.554l-14.319 142.111c-52.469 10.4-98.945 30.386-139.655 58.192l1.29-0.832-110.725-90.661-81.753 82.003 90.578 110.725c-26.975 39.42-46.961 85.896-56.962 135.975l-0.398 2.39-142.278 14.319v115.637l142.278 14.236c10.4 52.469 30.386 98.945 58.192 139.655l-0.832-1.29-90.578 110.642 81.753 81.753 110.725-90.079c39.42 26.975 85.896 46.961 135.975 56.962l2.39 0.398 14.236 142.278h115.637l14.236-142.278c52.499-10.389 99.004-30.376 139.739-58.193l-1.29 0.832 110.725 90.578 81.753-82.253-90.578-110.725c26.975-39.42 46.961-85.896 56.962-135.975l0.398-2.39zM599.415 787.731c-152.604 0-276.313-123.71-276.313-276.313s123.71-276.313 276.313-276.313c152.604 0 276.313 123.71 276.313 276.313v0c-0.189 152.527-123.786 276.124-276.295 276.313l-0.019 0z"
        ],
        "attrs": [
          {}
        ],
        "width": 1199,
        "isMulticolor": false,
        "isMulticolor2": false,
        "grid": 0,
        "tags": [
          "sun"
        ],
        "colorPermutations": {
          "13531321": [
            {}
          ]
        }
      },
      "attrs": [
        {}
      ],
      "properties": {
        "order": 40,
        "id": 7,
        "name": "sun",
        "prevSize": 32,
        "code": 59711
      },
      "setIdx": 4,
      "setId": 0,
      "iconIdx": 61
    },
    {
      "icon": {
        "paths": [
          "M541.721 214.79c17.358-3.534 37.311-5.557 57.735-5.557s40.377 2.023 59.667 5.879l-1.932-0.322v-215.373h-115.471z",
          "M541.721 810.209v213.208h115.387v-213.208c-17.358 3.534-37.311 5.557-57.735 5.557s-40.377-2.023-59.667-5.879l1.932 0.322z",
          "M127.126 305.452l185.902 107.312c13.685-38.554 33.494-71.768 58.565-100.236l-0.288 0.334-186.401-107.395z",
          "M828.94 710.639l184.986 106.812 57.694-99.902-185.153-107.062c-13.426 38.62-32.996 71.925-57.843 100.524l0.316-0.371z",
          "M1071.703 305.452l-57.694-99.902-186.318 107.395c24.783 28.134 44.591 61.348 57.617 97.787l0.66 2.115z",
          "M127.126 717.466l57.694 99.902 185.069-106.729c-24.476-28.162-44.014-61.381-56.795-97.781l-0.649-2.122z"
        ],
        "attrs": [
          {},
          {},
          {},
          {},
          {},
          {}
        ],
        "width": 1199,
        "isMulticolor": false,
        "isMulticolor2": false,
        "grid": 0,
        "tags": [
          "sunrays"
        ],
        "colorPermutations": {
          "13531321": [
            {},
            {},
            {},
            {},
            {},
            {}
          ]
        }
      },
      "attrs": [
        {},
        {},
        {},
        {},
        {},
        {}
      ],
      "properties": {
        "order": 41,
        "id": 6,
        "name": "sunrays",
        "prevSize": 32,
        "code": 59712
      },
      "setIdx": 4,
      "setId": 0,
      "iconIdx": 62
    },
    {
      "icon": {
        "paths": [
          "M436.49 381.294c13.596-3.629 29.219-5.75 45.325-5.827l0.047-0c39.961 0 77.175 15.651 77.175 61.107 0.001 0.108 0.001 0.236 0.001 0.364 0 23.47-14.715 43.503-35.422 51.376l-0.377 0.126v1.332c24.071 5.722 41.699 27.038 41.699 52.472 0 0.987-0.027 1.968-0.079 2.943l0.006-0.136c-0 46.038-38.213 71.014-81.254 71.014-0.985 0.020-2.145 0.031-3.309 0.031-17.812 0-35.010-2.627-51.228-7.516l1.255 0.325v-36.464c13.301 4.937 28.665 7.804 44.696 7.826l0.010 0c22.894 0 47.454-11.572 47.454-37.547 0-29.388-24.226-37.547-49.535-37.547h-15.651v-30.637h15.735c20.813 0 43.707-8.325 43.707-32.801 0-21.812-22.561-30.72-41.626-30.72-14.016 0.093-27.365 2.836-39.607 7.751l0.728-0.258z",
          "M666.016 611.986h-68.433v-241.431h71.014c72.346-0.167 117.718 49.285 117.718 120.632 0 73.012-46.704 120.799-120.299 120.799zM656.359 406.187h-17.816v169.668h16.65c54.946 0 88.414-28.306 88.414-84.667s-32.718-85-87.248-85z",
          "M966.972 162.508h111.641v-99.902h-306.201v306.284h99.902v-159.178c82.567 74.74 134.218 182.316 134.218 301.955 0 224.653-182.117 406.769-406.769 406.769-0.123 0-0.245-0-0.368-0l0.019 0v99.902c0.029 0 0.062 0 0.096 0 279.919 0 506.838-226.919 506.838-506.838 0-135.347-53.052-258.303-139.496-349.207l0.202 0.214z",
          "M313.444 800.968c-74.774-73.824-121.088-176.32-121.088-289.634 0-224.745 182.191-406.936 406.936-406.936 0.043 0 0.086 0 0.13 0l-0.007-0v-99.902c-279.832 0.298-506.564 227.215-506.564 507.088 0 131.575 50.112 251.446 132.29 341.568l-0.36-0.401h-117.718v99.902h306.284v-306.201h-99.902z"
        ],
        "attrs": [
          {},
          {},
          {},
          {}
        ],
        "width": 1199,
        "isMulticolor": false,
        "isMulticolor2": false,
        "grid": 0,
        "tags": [
          "threedimentional"
        ],
        "colorPermutations": {
          "13531321": [
            {},
            {},
            {},
            {}
          ]
        }
      },
      "attrs": [
        {},
        {},
        {},
        {}
      ],
      "properties": {
        "order": 52,
        "id": 5,
        "name": "threedimentional",
        "prevSize": 32,
        "code": 59713
      },
      "setIdx": 4,
      "setId": 0,
      "iconIdx": 63
    },
    {
      "icon": {
        "paths": [
          "M263.992 476.951l277.646-277.562v578.102h115.554v-578.102l277.562 277.562 71.097-71.097-406.436-406.436-406.436 406.436 71.014 71.097z",
          "M49.119 922.932h1100.592v100.485h-1100.592v-100.485z"
        ],
        "attrs": [
          {},
          {}
        ],
        "width": 1199,
        "isMulticolor": false,
        "isMulticolor2": false,
        "grid": 0,
        "tags": [
          "upload"
        ],
        "colorPermutations": {
          "13531321": [
            {},
            {}
          ]
        }
      },
      "attrs": [
        {},
        {}
      ],
      "properties": {
        "order": 51,
        "id": 4,
        "name": "upload",
        "prevSize": 32,
        "code": 59714
      },
      "setIdx": 4,
      "setId": 0,
      "iconIdx": 64
    },
    {
      "icon": {
        "paths": [
          "M1175.768 178.576l-140.363 117.802-104.398-51.367-32.385-111.807 140.363-117.635c-25.75-10.877-55.69-17.198-87.105-17.198-126.58 0-229.193 102.613-229.193 229.193 0 4.498 0.13 8.965 0.385 13.398l-0.028-0.613v103.233l-686.496 576.604c-12.237 10.652-19.928 26.255-19.928 43.654 0 31.909 25.868 57.777 57.777 57.777 13.813 0 26.494-4.847 36.435-12.934l-0.106 0.083 686.913-576.354 101.484 18.232c15.822 3.898 33.986 6.134 52.672 6.134 126.58 0 229.193-102.613 229.193-229.193 0-17.365-1.931-34.28-5.591-50.54l0.29 1.531z"
        ],
        "attrs": [
          {}
        ],
        "width": 1199,
        "isMulticolor": false,
        "isMulticolor2": false,
        "grid": 0,
        "tags": [
          "wrench"
        ],
        "colorPermutations": {
          "13531321": [
            {}
          ]
        }
      },
      "attrs": [
        {}
      ],
      "properties": {
        "order": 50,
        "id": 3,
        "name": "wrench",
        "prevSize": 32,
        "code": 59715
      },
      "setIdx": 4,
      "setId": 0,
      "iconIdx": 65
    },
    {
      "icon": {
        "paths": [
          "M906.198 633.548c15.086-34.951 23.861-75.643 23.861-118.386 0-101.178-49.166-190.872-124.91-246.495l-0.851-0.596v-268.654h-804.298v1024h804.298v-261.661c13.972-10.177 26.288-20.776 37.691-32.28l0.022-0.022 291.965 196.725 32.219-47.87 32.635-47.87zM688.911 922.932h-573.19v-823.030h573.19v116.553c-19.291-4.34-41.446-6.827-64.182-6.827-168.512 0-305.119 136.606-305.119 305.119s136.606 305.119 305.119 305.119c22.736 0 44.891-2.487 66.208-7.203l-2.026 0.376zM794.974 629.302c-37.297 54.831-99.401 90.373-169.807 90.373-113.062 0-204.717-91.655-204.717-204.717s91.655-204.717 204.717-204.717c42.664 0 82.279 13.051 115.072 35.378l-0.71-0.456c54.838 37.278 90.388 99.374 90.388 169.773 0 42.668-13.059 82.286-35.398 115.076l0.456-0.709z"
        ],
        "attrs": [
          {}
        ],
        "width": 1199,
        "isMulticolor": false,
        "isMulticolor2": false,
        "grid": 0,
        "tags": [
          "zoomdoc"
        ],
        "colorPermutations": {
          "13531321": [
            {}
          ]
        }
      },
      "attrs": [
        {}
      ],
      "properties": {
        "order": 53,
        "id": 2,
        "name": "zoomdoc",
        "prevSize": 32,
        "code": 59716
      },
      "setIdx": 4,
      "setId": 0,
      "iconIdx": 66
    },
    {
      "icon": {
        "paths": [
          "M1020.836 942.913l-326.847-326.847c47.846-63.425 76.631-143.57 76.631-230.438 0-212.514-172.277-384.791-384.791-384.791s-384.791 172.277-384.791 384.791c0 212.514 172.277 384.791 384.791 384.791 85.469 0 164.429-27.865 228.292-75.007l-1.053 0.742 327.18 327.18zM193.478 577.020c-49.145-49.157-79.541-117.060-79.541-192.062 0-150.029 121.622-271.651 271.651-271.651s271.651 121.622 271.651 271.651c0 150.029-121.622 271.651-271.651 271.651-0.017 0-0.034-0-0.051-0l0.003 0c-0.211 0.001-0.461 0.001-0.711 0.001-74.788 0-142.468-30.427-191.339-79.577l-0.012-0.013z",
          "M554.792 339.585h-123.879v-123.879h-90.828v123.879h-123.796v90.745h123.796v123.879h90.828v-123.879h123.879v-90.745z"
        ],
        "attrs": [
          {},
          {}
        ],
        "width": 1199,
        "isMulticolor": false,
        "isMulticolor2": false,
        "grid": 0,
        "tags": [
          "zoomin"
        ],
        "colorPermutations": {
          "13531321": [
            {},
            {}
          ]
        }
      },
      "attrs": [
        {},
        {}
      ],
      "properties": {
        "order": 54,
        "id": 1,
        "name": "zoomin",
        "prevSize": 32,
        "code": 59717
      },
      "setIdx": 4,
      "setId": 0,
      "iconIdx": 67
    },
    {
      "icon": {
        "paths": [
          "M1020.836 942.913l-326.847-326.847c47.846-63.425 76.631-143.57 76.631-230.438 0-212.514-172.277-384.791-384.791-384.791s-384.791 172.277-384.791 384.791c0 212.514 172.277 384.791 384.791 384.791 85.469 0 164.429-27.865 228.292-75.007l-1.053 0.742 327.18 327.18zM193.478 577.020c-49.115-49.139-79.492-117.012-79.492-191.979 0-149.983 121.585-271.568 271.568-271.568s271.568 121.585 271.568 271.568c0 149.983-121.585 271.568-271.568 271.568-0.005 0-0.010-0-0.014-0l0.001 0c-0.211 0.001-0.461 0.001-0.711 0.001-74.788 0-142.468-30.427-191.339-79.577l-0.012-0.013z",
          "M216.206 339.169h338.586v90.828h-338.586v-90.828z"
        ],
        "attrs": [
          {},
          {}
        ],
        "width": 1199,
        "isMulticolor": false,
        "isMulticolor2": false,
        "grid": 0,
        "tags": [
          "zoomout"
        ],
        "colorPermutations": {
          "13531321": [
            {},
            {}
          ]
        }
      },
      "attrs": [
        {},
        {}
      ],
      "properties": {
        "order": 61,
        "id": 0,
        "name": "zoomout",
        "prevSize": 32,
        "code": 59718
      },
      "setIdx": 4,
      "setId": 0,
      "iconIdx": 68
    }
  ],
  "height": 1024,
  "metadata": {
    "name": "icomoon"
  },
  "preferences": {
    "showGlyphs": true,
    "showCodes": true,
    "showQuickUse": true,
    "showQuickUse2": true,
    "showSVGs": true,
    "fontPref": {
      "prefix": "icon-",
      "metadata": {
        "fontFamily": "icomoon"
      },
      "metrics": {
        "emSize": 1024,
        "baseline": 6.25,
        "whitespace": 50
      },
      "autoHost": true
    },
    "imagePref": {
      "prefix": "icon-",
      "png": true,
      "useClassSelector": true,
      "color": 0,
      "bgColor": 16777215
    },
    "historySize": 50,
    "quickUsageToken": {
      "EatonAssetTracker": false
    },
    "fontUploadTime": "7/26/2017, 12:28:40 AM",
    "fontUrlS3": "https://s3.amazonaws.com/icomoon.io/58404/EatonAssetTracker/style.css?fdxkxb",
    "fontCF": {
      "url": "https://d1azc1qln24ryf.cloudfront.net/58404/EatonAssetTracker/style-cf.css?fdxkxb",
      "time": 1501043320247
    },
    "fontUrlHash": "fdxkxb",
    "fontHostingName": "EatonAssetTracker"
  }
}