<svg xmlns="http://www.w3.org/2000/svg" viewBox="0 0 176.01 56.54">
  <defs>
    <style>
      .a {
        fill: #005eb8;
      }

      .b {
        fill: #231f20;
      }
    </style>
  </defs>
  <title>eatonlogo</title>
  <path class="a" d="M20.31,35.59l3-10H12.11v-3H24.25L27.14,13h-15V10.1H28L31,0H0V35.59Zm99.53-13.22L113.28,0H96.53V35.59H107V13.28h.07l6.45,22.31h16.92V0H119.91V22.37ZM86,26.48a7,7,0,0,0,6.87-7.13v0c0-4-2.87-7.57-6.73-7.57s-6.93,3.6-6.93,7.57a6.84,6.84,0,0,0,6.51,7.15H86M80.38,0H48.09V10.13H58.28V35.59H74.67a20.39,20.39,0,0,1-8-16.45c0-8.57,5.2-17,13.67-19.15M36.53,26.16,33.65,35.6H50.43l-2.71-9.44Zm5.7-19.34,3.16,11.37H38.84Z" transform="translate(-0.04 0.01)"/>
  <path class="b" d="M30.6,48.55h1.62c.91,0,1.59-.43,1.92-2S33.8,44.74,33,44.74h-1.6ZM30.69,44h2.69c.82,0,2.14.11,1.66,2.38-.42,2-1.25,2.87-2.94,2.87H30.45l-1,4.57h-.87Z" transform="translate(-0.04 0.01)"/>
  <path class="b" d="M38.39,52.42a10.67,10.67,0,0,0,.59-2c.43-2,.41-2.91-.93-2.91s-1.74.89-2.17,2.91a9.65,9.65,0,0,0-.27,2c0,.16.06.91,1.19.91a1.66,1.66,0,0,0,1.58-.91m-3.49-1.27.35-1.63a2.83,2.83,0,0,1,2.94-2.68c2.35,0,2,1.81,1.8,2.68l-.35,1.63c-.38,1.78-1.21,2.83-3,2.83s-2.14-1-1.77-2.83" transform="translate(-0.04 0.01)"/>
  <polygon class="b" points="41.19 46.99 42.06 46.99 42.32 53.01 42.35 53.01 45.09 46.99 46.09 46.99 46.34 53.01 46.37 53.01 49.18 46.99 50 46.99 46.65 53.86 45.62 53.86 45.37 47.99 45.34 47.99 42.65 53.86 41.62 53.86 41.19 46.99"/>
  <g>
    <path class="b" d="M54.06,49.93c.32-1.52.27-2.44-1-2.44s-1.74.91-2.07,2.44Zm-3.24.65-.11.53c-.2,1-.21,2.22,1.08,2.22a1.81,1.81,0,0,0,1.85-1.58h.89A2.66,2.66,0,0,1,51.65,54c-1.18,0-2.26-.48-1.82-2.56l.36-1.69c.42-2,1.45-2.9,3-2.9,2.37,0,2,1.7,1.57,3.74Z" transform="translate(-0.04 0.01)"/>
    <path class="b" d="M57.69,47.91h0a2.66,2.66,0,0,1,2.12-1.06l-.18.83a2.1,2.1,0,0,0-2.29,1.75l-.94,4.42h-.82L57.07,47h.82Z" transform="translate(-0.04 0.01)"/>
  </g>
  <path class="b" d="M61.05,45.07l.22-1h1l-.22,1Zm-1.77,8.79L60.74,47h.79l-1.46,6.87Z" transform="translate(-0.04 0.01)"/>
  <g>
    <path class="b" d="M62.77,53.85h-.82L63.41,47h.82l-.18.84h0a2.55,2.55,0,0,1,1.87-1c1.7,0,1.61,1.27,1.42,2.16l-1,4.84h-.81l1-4.8c.17-.8,0-1.55-.94-1.55-.73,0-1.59.5-1.92,2Z" transform="translate(-0.04 0.01)"/>
    <path class="b" d="M69.53,50.26c-.3,1.43-.61,2.86.87,2.86a1.71,1.71,0,0,0,1.4-.78,8,8,0,0,0,.87-2.86c.31-1.44-.35-2-1.12-2-1.41,0-1.81,1.74-2,2.76M73.27,47h.8c-.17.65-.25,1-.33,1.35L72.53,54.1a2.58,2.58,0,0,1-2.72,2.43l-.21,0c-1.71,0-1.8-1.21-1.6-1.91h.82c-.22.79.26,1.25,1,1.25,1.59,0,1.68-.86,2.11-2.91h0a2.35,2.35,0,0,1-1.84.83c-2,0-1.75-1.7-1.42-3.22a7.44,7.44,0,0,1,.7-2.34,2.53,2.53,0,0,1,2.22-1.36,1.45,1.45,0,0,1,1.48,1h0Z" transform="translate(-0.04 0.01)"/>
    <path class="b" d="M81,48.4c1.25,0,1.83-.86,2.07-2,.35-1.63-.55-1.66-1.24-1.66H80.07l-.77,3.63Zm-2.68,4.72h1.39a2.2,2.2,0,0,0,2.53-1.81l0-.12c.19-.87.18-2.06-1.32-2.06H79.14Zm-1,.73L79.36,44h2.73c1.54,0,2.19.63,1.83,2.35-.25,1.18-.62,2-1.93,2.34h0c1.23.27,1.39,1.13,1.13,2.37a3,3,0,0,1-3.07,2.73Z" transform="translate(-0.04 0.01)"/>
    <path class="b" d="M89.75,47l-1.46,6.87h-.76l.16-.76h0a2.61,2.61,0,0,1-1.92.9c-1.41,0-1.59-1-1.35-2.15l1-4.86h.81l-1,4.72c0,.19-.39,1.63.8,1.63a2,2,0,0,0,1.82-1.51l1-4.84Z" transform="translate(-0.04 0.01)"/>
    <path class="b" d="M91.7,54c-1.48,0-1.92-.72-1.59-2.18h.83c-.2.94-.11,1.57.93,1.57a1.37,1.37,0,0,0,1.43-1.21c.38-1.8-2.81-1.33-2.32-3.6a2.18,2.18,0,0,1,2.43-1.71c1.36,0,1.6.94,1.37,2H94c.14-.87,0-1.33-.91-1.33a1.27,1.27,0,0,0-1.26,1c-.36,1.71,2.82,1.25,2.33,3.55A2.29,2.29,0,0,1,91.7,54" transform="translate(-0.04 0.01)"/>
  </g>
  <path class="b" d="M97,45.07l.22-1h1l-.22,1Zm-1.77,8.79L96.71,47h.82l-1.46,6.87Z" transform="translate(-0.04 0.01)"/>
  <g>
    <path class="b" d="M98.76,53.85h-.82L99.4,47h.82l-.18.84h0a2.56,2.56,0,0,1,1.87-1c1.7,0,1.61,1.27,1.42,2.16l-1,4.84h-.8l1-4.8c.17-.8,0-1.55-.94-1.55-.73,0-1.59.5-1.92,2Z" transform="translate(-0.04 0.01)"/>
    <path class="b" d="M108.71,49.93c.32-1.52.27-2.44-1-2.44s-1.74.91-2.07,2.44Zm-3.24.65-.11.53c-.2,1-.21,2.22,1.08,2.22a1.81,1.81,0,0,0,1.84-1.58h.86A2.66,2.66,0,0,1,106.3,54c-1.18,0-2.26-.48-1.82-2.56l.36-1.69c.42-2,1.45-2.9,3-2.9,2.37,0,2,1.7,1.57,3.74Z" transform="translate(-0.04 0.01)"/>
    <path class="b" d="M111.92,54c-1.48,0-1.91-.72-1.59-2.18h.83c-.2.94-.11,1.57.93,1.57a1.37,1.37,0,0,0,1.44-1.22c.38-1.8-2.81-1.33-2.32-3.6a2.18,2.18,0,0,1,2.43-1.71c1.36,0,1.6.94,1.37,2h-.8c.14-.87,0-1.33-.91-1.33a1.27,1.27,0,0,0-1.26,1c-.36,1.71,2.82,1.25,2.33,3.55A2.29,2.29,0,0,1,111.92,54" transform="translate(-0.04 0.01)"/>
    <path class="b" d="M117.11,54c-1.48,0-1.92-.72-1.59-2.18h.83c-.2.94-.11,1.57.93,1.57a1.37,1.37,0,0,0,1.43-1.21c.38-1.8-2.81-1.33-2.32-3.6a2.18,2.18,0,0,1,2.43-1.71c1.36,0,1.6.94,1.37,2h-.8c.14-.87,0-1.33-.91-1.33a1.27,1.27,0,0,0-1.26,1c-.36,1.71,2.82,1.25,2.33,3.55A2.29,2.29,0,0,1,117.11,54" transform="translate(-0.04 0.01)"/>
  </g>
  <polygon class="b" points="129.1 44.04 130.27 44.04 130.41 52.65 130.44 52.65 134.36 44.04 135.22 44.04 130.7 53.86 129.55 53.86 129.44 45.13 129.41 45.13 125.53 53.86 124.44 53.86 124.16 44.04 125.08 44.04 125.23 52.72 125.25 52.72 129.1 44.04"/>
  <g>
    <path class="b" d="M137.68,52.42a10.76,10.76,0,0,0,.59-2c.43-2,.41-2.91-.93-2.91s-1.74.89-2.17,2.91a9.65,9.65,0,0,0-.27,2c0,.16.07.91,1.19.91a1.66,1.66,0,0,0,1.58-.91m-3.49-1.27.35-1.63a2.83,2.83,0,0,1,2.94-2.68c2.35,0,2,1.81,1.8,2.68l-.35,1.63c-.38,1.78-1.21,2.83-3,2.83s-2.15-1-1.77-2.83" transform="translate(-0.04 0.01)"/>
    <path class="b" d="M142.12,47.91h0a2.66,2.66,0,0,1,2.12-1.06l-.18.83a2.1,2.1,0,0,0-2.29,1.75l-.94,4.42H140L141.53,47h.82Z" transform="translate(-0.04 0.01)"/>
  </g>
  <polygon class="b" points="143.73 53.86 145.82 44.04 146.63 44.04 144.54 53.86 143.73 53.86"/>
  <path class="b" d="M150.67,51l.26-1.22c.09-.41.49-2.31-1-2.31s-1.75,1.33-2.09,2.94c-.54,2.56,0,2.9.88,2.9s1.64-.63,2-2.3m-.43,2h0a2.44,2.44,0,0,1-2,1c-2,0-1.68-2-1.33-3.58.28-1.32.76-3.56,2.87-3.56a1.67,1.67,0,0,1,1.49.82h0l.81-3.68H153l-1.8,8.46a8.88,8.88,0,0,0-.21,1.36h-.79Z" transform="translate(-0.04 0.01)"/>
  <polygon class="b" points="153.26 46.99 154.13 46.99 154.39 53.01 154.41 53.01 157.15 46.99 158.16 46.99 158.4 53.01 158.43 53.01 161.24 46.99 162.06 46.99 158.71 53.86 157.69 53.86 157.43 47.99 157.4 47.99 154.71 53.86 153.69 53.86 153.26 46.99"/>
  <path class="b" d="M163.43,45.07l.22-1h1l-.22,1Zm-1.77,8.79L163.12,47h.82l-1.46,6.87Z" transform="translate(-0.04 0.01)"/>
  <g>
    <path class="b" d="M168.53,51l.26-1.22c.09-.41.49-2.31-1-2.31S166,48.8,165.7,50.41c-.54,2.56,0,2.9.88,2.9s1.64-.63,2-2.3m-.44,2h0a2.44,2.44,0,0,1-2,1c-2,0-1.68-2-1.33-3.58.28-1.32.76-3.56,2.87-3.56a1.67,1.67,0,0,1,1.49.82h0l.77-3.64h.82L169,52.5a9,9,0,0,0-.21,1.36H168Z" transform="translate(-0.04 0.01)"/>
    <path class="b" d="M175,49.93c.32-1.52.27-2.44-1-2.44s-1.74.91-2.07,2.44Zm-3.24.65-.11.53c-.2,1-.21,2.22,1.08,2.22a1.81,1.81,0,0,0,1.85-1.58h.86A2.66,2.66,0,0,1,172.62,54c-1.18,0-2.27-.48-1.82-2.56l.36-1.69c.42-2,1.45-2.9,3-2.9,2.37,0,2,1.7,1.57,3.74Z" transform="translate(-0.04 0.01)"/>
  </g>
</svg>
